branch	name	FractionOverlaps	event	final_name
internal_2	chr3	0.9804658509775299	gain	3 +
internal_2	CNTN6	1.0	gain	CNTN6 +
internal_2	IL5RA	1.0	gain	IL5RA +
internal_2	THUMPD3	1.0	gain	THUMPD3 +
internal_2	CAMK1	1.0	gain	CAMK1 +
internal_2	VHL	1.0	gain	VHL +
internal_2	RAF1	1.0	gain	RAF1 +
internal_2	FBLN2	1.0	gain	FBLN2 +
internal_2	CHCHD4	1.0	gain	CHCHD4 +
internal_2	KAT2B	1.0	gain	KAT2B +
internal_2	TOP2B	1.0	gain	TOP2B +
internal_2	SLC4A7	1.0	gain	SLC4A7 +
internal_2	EOMES	1.0	gain	EOMES +
internal_2	TGFBR2	1.0	gain	TGFBR2 +
internal_2	CLASP2	1.0	gain	CLASP2 +
internal_2	ARPP21	1.0	gain	ARPP21 +
internal_2	STAC	1.0	gain	STAC +
internal_2	MLH1	1.0	gain	MLH1 +
internal_2	MYD88	1.0	gain	MYD88 +
internal_2	SCN5A	1.0	gain	SCN5A +
internal_2	SCN10A	1.0	gain	SCN10A +
internal_2	CTNNB1	1.0	gain	CTNNB1 +
internal_2	CYP8B1	1.0	gain	CYP8B1 +
internal_2	ZKSCAN7	1.0	gain	ZKSCAN7 +
internal_2	SETD2	1.0	gain	SETD2 +
internal_2	CDC25A	1.0	gain	CDC25A +
internal_2	DALRD3	1.0	gain	DALRD3 +
internal_2	KLHDC8B	1.0	gain	KLHDC8B +
internal_2	CCDC36	1.0	gain	CCDC36 +
internal_2	RHOA	1.0	gain	RHOA +
internal_2	NICN1	1.0	gain	NICN1 +
internal_2	RBM5	1.0	gain	RBM5 +
internal_2	RBM15B	1.0	gain	RBM15B +
internal_2	IQCF2	1.0	gain	IQCF2 +
internal_2	PCBP4	1.0	gain	PCBP4 +
internal_2	ACY1	1.0	gain	ACY1 +
internal_2	TLR9	1.0	gain	TLR9 +
internal_2	TWF2	1.0	gain	TWF2 +
internal_2	BAP1	1.0	gain	BAP1 +
internal_2	PBRM1	1.0	gain	PBRM1 +
internal_2	GLT8D1	1.0	gain	GLT8D1 +
internal_2	SPCS1	1.0	gain	SPCS1 +
internal_2	PRKCD	1.0	gain	PRKCD +
internal_2	CACNA1D	1.0	gain	CACNA1D +
internal_2	ERC2	1.0	gain	ERC2 +
internal_2	HESX1	1.0	gain	HESX1 +
internal_2	ARF4	1.0	gain	ARF4 +
internal_2	DENND6A	1.0	gain	DENND6A +
internal_2	PXK	1.0	gain	PXK +
internal_2	CADPS	1.0	gain	CADPS +
internal_2	PSMD6	1.0	gain	PSMD6 +
internal_2	FAM19A1	1.0	gain	FAM19A1 +
internal_2	ZNF717	1.0	gain	ZNF717 +
internal_2	ROBO2	1.0	gain	ROBO2 +
internal_2	GBE1	1.0	gain	GBE1 +
internal_2	ZNF654	1.0	gain	ZNF654 +
internal_2	EPHA3	1.0	gain	EPHA3 +
internal_2	EPHA6	1.0	gain	EPHA6 +
internal_2	OR5AC2	1.0	gain	OR5AC2 +
internal_2	TFG	1.0	gain	TFG +
internal_2	SENP7	1.0	gain	SENP7 +
internal_2	ZBTB11	1.0	gain	ZBTB11 +
internal_2	ZBTB20	1.0	gain	ZBTB20 +
internal_2	POGLUT1	1.0	gain	POGLUT1 +
internal_2	GSK3B	1.0	gain	GSK3B +
internal_2	GTF2E1	1.0	gain	GTF2E1 +
internal_2	STXBP5L	1.0	gain	STXBP5L +
internal_2	KPNA1	1.0	gain	KPNA1 +
internal_2	DIRC2	1.0	gain	DIRC2 +
internal_2	SEC22A	1.0	gain	SEC22A +
internal_2	KALRN	1.0	gain	KALRN +
internal_2	GATA2	1.0	gain	GATA2 +
internal_2	C3orf27	1.0	gain	C3orf27 +
internal_2	ISY1	1.0	gain	ISY1 +
internal_2	EPHB1	1.0	gain	EPHB1 +
internal_2	STAG1	1.0	gain	STAG1 +
internal_2	PIK3CB	1.0	gain	PIK3CB +
internal_2	RASA2	1.0	gain	RASA2 +
internal_2	TFDP2	1.0	gain	TFDP2 +
internal_2	ATR	1.0	gain	ATR +
internal_2	SLC9A9	1.0	gain	SLC9A9 +
internal_2	CPB1	1.0	gain	CPB1 +
internal_2	HPS3	1.0	gain	HPS3 +
internal_2	TSC22D2	1.0	gain	TSC22D2 +
internal_2	SIAH2	1.0	gain	SIAH2 +
internal_2	SUCNR1	1.0	gain	SUCNR1 +
internal_2	MBNL1	1.0	gain	MBNL1 +
internal_2	DHX36	1.0	gain	DHX36 +
internal_2	MME	1.0	gain	MME +
internal_2	RSRC1	1.0	gain	RSRC1 +
internal_2	MLF1	1.0	gain	MLF1 +
internal_2	SCHIP1	1.0	gain	SCHIP1 +
internal_2	SMC4	1.0	gain	SMC4 +
internal_2	TRIM59	1.0	gain	TRIM59 +
internal_2	KPNA4	1.0	gain	KPNA4 +
internal_2	B3GALNT1	1.0	gain	B3GALNT1 +
internal_2	NMD3	1.0	gain	NMD3 +
internal_2	GOLIM4	1.0	gain	GOLIM4 +
internal_2	MECOM	1.0	gain	MECOM +
internal_2	PHC3	1.0	gain	PHC3 +
internal_2	PRKCI	1.0	gain	PRKCI +
internal_2	EIF5A2	1.0	gain	EIF5A2 +
internal_2	TNIK	1.0	gain	TNIK +
internal_2	NAALADL2	1.0	gain	NAALADL2 +
internal_2	TBL1XR1	1.0	gain	TBL1XR1 +
internal_2	KCNMB2	1.0	gain	KCNMB2 +
internal_2	PIK3CA	1.0	gain	PIK3CA +
internal_2	GNB4	1.0	gain	GNB4 +
internal_2	CCDC39	1.0	gain	CCDC39 +
internal_2	FXR1	1.0	gain	FXR1 +
internal_2	B3GNT5	1.0	gain	B3GNT5 +
internal_2	CHRD	1.0	gain	CHRD +
internal_2	MAP3K13	1.0	gain	MAP3K13 +
internal_2	TRA2B	1.0	gain	TRA2B +
internal_2	RTP1	1.0	gain	RTP1 +
internal_2	OSTN	1.0	gain	OSTN +
internal_2	MB21D2	1.0	gain	MB21D2 +
internal_2	HRASLS	1.0	gain	HRASLS +
internal_2	MUC20	1.0	gain	MUC20 +
internal_2	DLG1	1.0	gain	DLG1 +
internal_2	THUMPD3	1.0	loss	THUMPD3 -
internal_2	CAMK1	1.0	loss	CAMK1 -
internal_2	VHL	1.0	loss	VHL -
internal_2	SETD2	1.0	loss	SETD2 -
internal_2	CDC25A	1.0	loss	CDC25A -
internal_2	DALRD3	1.0	loss	DALRD3 -
internal_2	KLHDC8B	1.0	loss	KLHDC8B -
internal_2	CCDC36	1.0	loss	CCDC36 -
internal_2	RHOA	1.0	loss	RHOA -
internal_2	NICN1	1.0	loss	NICN1 -
internal_2	RBM5	1.0	loss	RBM5 -
internal_2	chr20q	0.9227107887766419	gain	20q +
internal_2	DEFB115	1.0	gain	DEFB115 +
internal_2	DEFB123	1.0	gain	DEFB123 +
internal_2	TPX2	1.0	gain	TPX2 +
internal_2	ASXL1	1.0	gain	ASXL1 +
internal_2	E2F1	1.0	gain	E2F1 +
internal_2	EIF2S2	1.0	gain	EIF2S2 +
internal_2	SPAG4	1.0	gain	SPAG4 +
internal_2	RBM39	1.0	gain	RBM39 +
internal_2	SAMHD1	1.0	gain	SAMHD1 +
internal_2	SRC	1.0	gain	SRC +
internal_2	TOP1	1.0	gain	TOP1 +
internal_2	PLCG1	1.0	gain	PLCG1 +
internal_2	TTPAL	1.0	gain	TTPAL +
internal_2	STK4	1.0	gain	STK4 +
internal_2	PI3	1.0	gain	PI3 +
internal_2	SEMG2	1.0	gain	SEMG2 +
internal_2	RBPJL	1.0	gain	RBPJL +
internal_2	SDC4	1.0	gain	SDC4 +
internal_2	EYA2	1.0	gain	EYA2 +
internal_2	ADNP	1.0	gain	ADNP +
internal_2	ATP9A	1.0	gain	ATP9A +
internal_2	DOK5	1.0	gain	DOK5 +
internal_2	CBLN4	1.0	gain	CBLN4 +
internal_2	RTFDC1	1.0	gain	RTFDC1 +
internal_2	SPO11	1.0	gain	SPO11 +
internal_2	CTCFL	1.0	gain	CTCFL +
internal_2	GNAS	1.0	gain	GNAS +
internal_2	SYCP2	1.0	gain	SYCP2 +
internal_2	PPP1R3D	1.0	gain	PPP1R3D +
internal_2	CDH4	1.0	gain	CDH4 +
internal_2	TAF4	1.0	gain	TAF4 +
internal_2	PSMA7	1.0	gain	PSMA7 +
internal_2	HNRNPD	1.0	loss	HNRNPD -
internal_2	COPS4	1.0	loss	COPS4 -
internal_2	FAM175A	1.0	loss	FAM175A -
internal_2	NKX6-1	1.0	loss	NKX6-1 -
internal_2	KLHL8	1.0	loss	KLHL8 -
internal_2	DSPP	1.0	loss	DSPP -
internal_2	PKD2	1.0	loss	PKD2 -
internal_2	GRID2	1.0	loss	GRID2 -
internal_2	PDHA2	1.0	loss	PDHA2 -
internal_2	CSMD1	1.0	loss	CSMD1 -
internal_2	MCPH1	1.0	loss	MCPH1 -
internal_2	SPAG11A	1.0	loss	SPAG11A -
internal_2	XKR6	1.0	loss	XKR6 -
internal_2	TUSC3	1.0	loss	TUSC3 -
internal_2	MICU3	1.0	loss	MICU3 -
internal_2	PPP3CC	1.0	loss	PPP3CC -
internal_2	KIAA1967	1.0	loss	KIAA1967 -
internal_2	TNFRSF10C	1.0	loss	TNFRSF10C -
internal_2	EBF2	1.0	loss	EBF2 -
internal_2	PNOC	1.0	loss	PNOC -
internal_2	ZNF395	1.0	loss	ZNF395 -
internal_2	HMBOX1	1.0	loss	HMBOX1 -
internal_2	PPP2CB	1.0	loss	PPP2CB -
internal_2	XPOT	1.0	loss	XPOT -
internal_2	DCLK1	1.0	loss	DCLK1 -
internal_2	POSTN	1.0	loss	POSTN -
internal_2	TRPC4	1.0	loss	TRPC4 -
internal_2	MRPS31	1.0	loss	MRPS31 -
internal_2	ELF1	1.0	loss	ELF1 -
internal_2	WBP4	1.0	loss	WBP4 -
internal_2	KBTBD7	1.0	loss	KBTBD7 -
internal_2	ENOX1	1.0	loss	ENOX1 -
internal_2	NUFIP1	1.0	loss	NUFIP1 -
internal_2	ZC3H13	1.0	loss	ZC3H13 -
internal_2	LCP1	1.0	loss	LCP1 -
internal_2	LRCH1	1.0	loss	LRCH1 -
internal_2	NUDT15	1.0	loss	NUDT15 -
internal_2	RB1	1.0	loss	RB1 -
internal_2	SETDB2	1.0	loss	SETDB2 -
internal_2	EBPL	1.0	loss	EBPL -
internal_2	RNASEH2B	1.0	loss	RNASEH2B -
internal_2	DACH1	1.0	loss	DACH1 -
internal_2	GPC6	1.0	loss	GPC6 -
internal_2	DCT	1.0	loss	DCT -
internal_2	SOX21	1.0	loss	SOX21 -
internal_2	CLDN10	1.0	loss	CLDN10 -
internal_2	ACADVL	1.0	loss	ACADVL -
internal_2	CTDNEP1	1.0	loss	CTDNEP1 -
internal_2	YBX2	1.0	loss	YBX2 -
internal_2	GPS2	1.0	loss	GPS2 -
internal_2	KCTD11	1.0	loss	KCTD11 -
internal_2	POLR2A	1.0	loss	POLR2A -
internal_2	TNFSF12	1.0	loss	TNFSF12 -
internal_2	SENP3	1.0	loss	SENP3 -
internal_2	TP53	1.0	loss	TP53 -
internal_2	CHD3	1.0	loss	CHD3 -
internal_2	PER1	1.0	loss	PER1 -
internal_2	ODF4	1.0	loss	ODF4 -
internal_2	MYH10	1.0	loss	MYH10 -
internal_2	PIK3R5	1.0	loss	PIK3R5 -
internal_2	MYH2	1.0	loss	MYH2 -
internal_2	MAP2K4	1.0	loss	MAP2K4 -
internal_2	NCOR1	1.0	loss	NCOR1 -
internal_2	CCDC144NL	1.0	loss	CCDC144NL -
internal_2	PAX1	1.0	loss	PAX1 -
internal_2	GGTLC1	1.0	loss	GGTLC1 -
internal_2	PLAC4	1.0	loss	PLAC4 -
RPelvicLNMet_A12D-0020_CRUK_PC_0020_M3	chr8q	0.9833998734983735	gain	8q +
RPelvicLNMet_A12D-0020_CRUK_PC_0020_M3	chr14q	0.9641037673886114	gain	14q +
RPelvicLNMet_A12D-0020_CRUK_PC_0020_M3	NBPF10	1.0	gain	NBPF10 +
RPelvicLNMet_A12D-0020_CRUK_PC_0020_M3	NOTCH2NL	1.0	gain	NOTCH2NL +
RPelvicLNMet_A12D-0020_CRUK_PC_0020_M3	BCL9	1.0	gain	BCL9 +
RPelvicLNMet_A12D-0020_CRUK_PC_0020_M3	NBPF9	1.0	gain	NBPF9 +
RPelvicLNMet_A12D-0020_CRUK_PC_0020_M3	HIST2H2BF	1.0	gain	HIST2H2BF +
RPelvicLNMet_A12D-0020_CRUK_PC_0020_M3	CTSK	1.0	gain	CTSK +
RPelvicLNMet_A12D-0020_CRUK_PC_0020_M3	SETDB1	1.0	gain	SETDB1 +
RPelvicLNMet_A12D-0020_CRUK_PC_0020_M3	MLLT11	1.0	gain	MLLT11 +
RPelvicLNMet_A12D-0020_CRUK_PC_0020_M3	ZNF687	1.0	gain	ZNF687 +
RPelvicLNMet_A12D-0020_CRUK_PC_0020_M3	POGZ	1.0	gain	POGZ +
RPelvicLNMet_A12D-0020_CRUK_PC_0020_M3	RPTN	1.0	gain	RPTN +
RPelvicLNMet_A12D-0020_CRUK_PC_0020_M3	LCE5A	1.0	gain	LCE5A +
RPelvicLNMet_A12D-0020_CRUK_PC_0020_M3	LCE2D	1.0	gain	LCE2D +
RPelvicLNMet_A12D-0020_CRUK_PC_0020_M3	C1orf68	1.0	gain	C1orf68 +
RPelvicLNMet_A12D-0020_CRUK_PC_0020_M3	CACNA1E	1.0	gain	CACNA1E +
RPelvicLNMet_A12D-0020_CRUK_PC_0020_M3	PLEKHA6	1.0	gain	PLEKHA6 +
RPelvicLNMet_A12D-0020_CRUK_PC_0020_M3	CR1	1.0	gain	CR1 +
RPelvicLNMet_A12D-0020_CRUK_PC_0020_M3	PLXNA2	1.0	gain	PLXNA2 +
RPelvicLNMet_A12D-0020_CRUK_PC_0020_M3	GPATCH2	1.0	gain	GPATCH2 +
RPelvicLNMet_A12D-0020_CRUK_PC_0020_M3	SPATA17	1.0	gain	SPATA17 +
RPelvicLNMet_A12D-0020_CRUK_PC_0020_M3	SNTG1	1.0	gain	SNTG1 +
RPelvicLNMet_A12D-0020_CRUK_PC_0020_M3	PCMTD1	1.0	gain	PCMTD1 +
RPelvicLNMet_A12D-0020_CRUK_PC_0020_M3	SOX17	1.0	gain	SOX17 +
RPelvicLNMet_A12D-0020_CRUK_PC_0020_M3	UBXN2B	1.0	gain	UBXN2B +
RPelvicLNMet_A12D-0020_CRUK_PC_0020_M3	TOX	1.0	gain	TOX +
RPelvicLNMet_A12D-0020_CRUK_PC_0020_M3	MYBL1	1.0	gain	MYBL1 +
RPelvicLNMet_A12D-0020_CRUK_PC_0020_M3	CPA6	1.0	gain	CPA6 +
RPelvicLNMet_A12D-0020_CRUK_PC_0020_M3	PREX2	1.0	gain	PREX2 +
RPelvicLNMet_A12D-0020_CRUK_PC_0020_M3	C8orf34	1.0	gain	C8orf34 +
RPelvicLNMet_A12D-0020_CRUK_PC_0020_M3	NCOA2	1.0	gain	NCOA2 +
RPelvicLNMet_A12D-0020_CRUK_PC_0020_M3	STAU2	1.0	gain	STAU2 +
RPelvicLNMet_A12D-0020_CRUK_PC_0020_M3	TMEM70	1.0	gain	TMEM70 +
RPelvicLNMet_A12D-0020_CRUK_PC_0020_M3	LY96	1.0	gain	LY96 +
RPelvicLNMet_A12D-0020_CRUK_PC_0020_M3	CRISPLD1	1.0	gain	CRISPLD1 +
RPelvicLNMet_A12D-0020_CRUK_PC_0020_M3	ZFHX4	1.0	gain	ZFHX4 +
RPelvicLNMet_A12D-0020_CRUK_PC_0020_M3	PEX2	1.0	gain	PEX2 +
RPelvicLNMet_A12D-0020_CRUK_PC_0020_M3	RALYL	1.0	gain	RALYL +
RPelvicLNMet_A12D-0020_CRUK_PC_0020_M3	E2F5	1.0	gain	E2F5 +
RPelvicLNMet_A12D-0020_CRUK_PC_0020_M3	SLC7A13	1.0	gain	SLC7A13 +
RPelvicLNMet_A12D-0020_CRUK_PC_0020_M3	WWP1	1.0	gain	WWP1 +
RPelvicLNMet_A12D-0020_CRUK_PC_0020_M3	CNBD1	1.0	gain	CNBD1 +
RPelvicLNMet_A12D-0020_CRUK_PC_0020_M3	NECAB1	1.0	gain	NECAB1 +
RPelvicLNMet_A12D-0020_CRUK_PC_0020_M3	TMEM55A	1.0	gain	TMEM55A +
RPelvicLNMet_A12D-0020_CRUK_PC_0020_M3	SLC26A7	1.0	gain	SLC26A7 +
RPelvicLNMet_A12D-0020_CRUK_PC_0020_M3	RUNX1T1	1.0	gain	RUNX1T1 +
RPelvicLNMet_A12D-0020_CRUK_PC_0020_M3	ESRP1	1.0	gain	ESRP1 +
RPelvicLNMet_A12D-0020_CRUK_PC_0020_M3	DPY19L4	1.0	gain	DPY19L4 +
RPelvicLNMet_A12D-0020_CRUK_PC_0020_M3	INTS8	1.0	gain	INTS8 +
RPelvicLNMet_A12D-0020_CRUK_PC_0020_M3	C8orf37	1.0	gain	C8orf37 +
RPelvicLNMet_A12D-0020_CRUK_PC_0020_M3	KCNS2	1.0	gain	KCNS2 +
RPelvicLNMet_A12D-0020_CRUK_PC_0020_M3	RGS22	1.0	gain	RGS22 +
RPelvicLNMet_A12D-0020_CRUK_PC_0020_M3	ANKRD46	1.0	gain	ANKRD46 +
RPelvicLNMet_A12D-0020_CRUK_PC_0020_M3	UBR5	1.0	gain	UBR5 +
RPelvicLNMet_A12D-0020_CRUK_PC_0020_M3	ODF1	1.0	gain	ODF1 +
RPelvicLNMet_A12D-0020_CRUK_PC_0020_M3	FZD6	1.0	gain	FZD6 +
RPelvicLNMet_A12D-0020_CRUK_PC_0020_M3	RIMS2	1.0	gain	RIMS2 +
RPelvicLNMet_A12D-0020_CRUK_PC_0020_M3	DPYS	1.0	gain	DPYS +
RPelvicLNMet_A12D-0020_CRUK_PC_0020_M3	LRP12	1.0	gain	LRP12 +
RPelvicLNMet_A12D-0020_CRUK_PC_0020_M3	OXR1	1.0	gain	OXR1 +
RPelvicLNMet_A12D-0020_CRUK_PC_0020_M3	RSPO2	1.0	gain	RSPO2 +
RPelvicLNMet_A12D-0020_CRUK_PC_0020_M3	KCNV1	1.0	gain	KCNV1 +
RPelvicLNMet_A12D-0020_CRUK_PC_0020_M3	CSMD3	1.0	gain	CSMD3 +
RPelvicLNMet_A12D-0020_CRUK_PC_0020_M3	TRPS1	1.0	gain	TRPS1 +
RPelvicLNMet_A12D-0020_CRUK_PC_0020_M3	RAD21	1.0	gain	RAD21 +
RPelvicLNMet_A12D-0020_CRUK_PC_0020_M3	COL14A1	1.0	gain	COL14A1 +
RPelvicLNMet_A12D-0020_CRUK_PC_0020_M3	HAS2	1.0	gain	HAS2 +
RPelvicLNMet_A12D-0020_CRUK_PC_0020_M3	ATAD2	1.0	gain	ATAD2 +
RPelvicLNMet_A12D-0020_CRUK_PC_0020_M3	MYC	1.0	gain	MYC +
RPelvicLNMet_A12D-0020_CRUK_PC_0020_M3	ASAP1	1.0	gain	ASAP1 +
RPelvicLNMet_A12D-0020_CRUK_PC_0020_M3	PHF20L1	1.0	gain	PHF20L1 +
RPelvicLNMet_A12D-0020_CRUK_PC_0020_M3	COL22A1	1.0	gain	COL22A1 +
RPelvicLNMet_A12D-0020_CRUK_PC_0020_M3	DENND3	1.0	gain	DENND3 +
RPelvicLNMet_A12D-0020_CRUK_PC_0020_M3	PSCA	1.0	gain	PSCA +
RPelvicLNMet_A12D-0020_CRUK_PC_0020_M3	LY6D	1.0	gain	LY6D +
RPelvicLNMet_A12D-0020_CRUK_PC_0020_M3	NRBP2	1.0	gain	NRBP2 +
RPelvicLNMet_A12D-0020_CRUK_PC_0020_M3	C8orf33	1.0	gain	C8orf33 +
RPelvicLNMet_A12D-0020_CRUK_PC_0020_M3	APEX1	1.0	gain	APEX1 +
RPelvicLNMet_A12D-0020_CRUK_PC_0020_M3	SUPT16H	1.0	gain	SUPT16H +
RPelvicLNMet_A12D-0020_CRUK_PC_0020_M3	CHD8	1.0	gain	CHD8 +
RPelvicLNMet_A12D-0020_CRUK_PC_0020_M3	METTL3	1.0	gain	METTL3 +
RPelvicLNMet_A12D-0020_CRUK_PC_0020_M3	AJUBA	1.0	gain	AJUBA +
RPelvicLNMet_A12D-0020_CRUK_PC_0020_M3	C14orf93	1.0	gain	C14orf93 +
RPelvicLNMet_A12D-0020_CRUK_PC_0020_M3	CDH24	1.0	gain	CDH24 +
RPelvicLNMet_A12D-0020_CRUK_PC_0020_M3	ACIN1	1.0	gain	ACIN1 +
RPelvicLNMet_A12D-0020_CRUK_PC_0020_M3	IL25	1.0	gain	IL25 +
RPelvicLNMet_A12D-0020_CRUK_PC_0020_M3	MYH6	1.0	gain	MYH6 +
RPelvicLNMet_A12D-0020_CRUK_PC_0020_M3	AP1G2	1.0	gain	AP1G2 +
RPelvicLNMet_A12D-0020_CRUK_PC_0020_M3	NFATC4	1.0	gain	NFATC4 +
RPelvicLNMet_A12D-0020_CRUK_PC_0020_M3	CBLN3	1.0	gain	CBLN3 +
RPelvicLNMet_A12D-0020_CRUK_PC_0020_M3	STXBP6	1.0	gain	STXBP6 +
RPelvicLNMet_A12D-0020_CRUK_PC_0020_M3	HECTD1	1.0	gain	HECTD1 +
RPelvicLNMet_A12D-0020_CRUK_PC_0020_M3	ARHGAP5	1.0	gain	ARHGAP5 +
RPelvicLNMet_A12D-0020_CRUK_PC_0020_M3	RALGAPA1	1.0	gain	RALGAPA1 +
RPelvicLNMet_A12D-0020_CRUK_PC_0020_M3	FOXA1	1.0	gain	FOXA1 +
RPelvicLNMet_A12D-0020_CRUK_PC_0020_M3	FANCM	1.0	gain	FANCM +
RPelvicLNMet_A12D-0020_CRUK_PC_0020_M3	MDGA2	1.0	gain	MDGA2 +
RPelvicLNMet_A12D-0020_CRUK_PC_0020_M3	MGAT2	1.0	gain	MGAT2 +
RPelvicLNMet_A12D-0020_CRUK_PC_0020_M3	POLE2	1.0	gain	POLE2 +
RPelvicLNMet_A12D-0020_CRUK_PC_0020_M3	MAP4K5	1.0	gain	MAP4K5 +
RPelvicLNMet_A12D-0020_CRUK_PC_0020_M3	SAV1	1.0	gain	SAV1 +
RPelvicLNMet_A12D-0020_CRUK_PC_0020_M3	GNG2	1.0	gain	GNG2 +
RPelvicLNMet_A12D-0020_CRUK_PC_0020_M3	SAMD4A	1.0	gain	SAMD4A +
RPelvicLNMet_A12D-0020_CRUK_PC_0020_M3	FBXO34	1.0	gain	FBXO34 +
RPelvicLNMet_A12D-0020_CRUK_PC_0020_M3	ATG14	1.0	gain	ATG14 +
RPelvicLNMet_A12D-0020_CRUK_PC_0020_M3	PSMA3	1.0	gain	PSMA3 +
RPelvicLNMet_A12D-0020_CRUK_PC_0020_M3	DAAM1	1.0	gain	DAAM1 +
RPelvicLNMet_A12D-0020_CRUK_PC_0020_M3	SIX6	1.0	gain	SIX6 +
RPelvicLNMet_A12D-0020_CRUK_PC_0020_M3	SNAPC1	1.0	gain	SNAPC1 +
RPelvicLNMet_A12D-0020_CRUK_PC_0020_M3	MAX	1.0	gain	MAX +
RPelvicLNMet_A12D-0020_CRUK_PC_0020_M3	PIGH	1.0	gain	PIGH +
RPelvicLNMet_A12D-0020_CRUK_PC_0020_M3	ZFP36L1	1.0	gain	ZFP36L1 +
RPelvicLNMet_A12D-0020_CRUK_PC_0020_M3	MED6	1.0	gain	MED6 +
RPelvicLNMet_A12D-0020_CRUK_PC_0020_M3	SIPA1L1	1.0	gain	SIPA1L1 +
RPelvicLNMet_A12D-0020_CRUK_PC_0020_M3	ACOT4	1.0	gain	ACOT4 +
RPelvicLNMet_A12D-0020_CRUK_PC_0020_M3	YLPM1	1.0	gain	YLPM1 +
RPelvicLNMet_A12D-0020_CRUK_PC_0020_M3	NEK9	1.0	gain	NEK9 +
RPelvicLNMet_A12D-0020_CRUK_PC_0020_M3	TMED10	1.0	gain	TMED10 +
RPelvicLNMet_A12D-0020_CRUK_PC_0020_M3	SEL1L	1.0	gain	SEL1L +
RPelvicLNMet_A12D-0020_CRUK_PC_0020_M3	FLRT2	1.0	gain	FLRT2 +
RPelvicLNMet_A12D-0020_CRUK_PC_0020_M3	EML5	1.0	gain	EML5 +
RPelvicLNMet_A12D-0020_CRUK_PC_0020_M3	CATSPERB	1.0	gain	CATSPERB +
RPelvicLNMet_A12D-0020_CRUK_PC_0020_M3	MOAP1	1.0	gain	MOAP1 +
RPelvicLNMet_A12D-0020_CRUK_PC_0020_M3	BTBD7	1.0	gain	BTBD7 +
RPelvicLNMet_A12D-0020_CRUK_PC_0020_M3	ASB2	1.0	gain	ASB2 +
RPelvicLNMet_A12D-0020_CRUK_PC_0020_M3	DICER1	1.0	gain	DICER1 +
RPelvicLNMet_A12D-0020_CRUK_PC_0020_M3	PPP2R5C	1.0	gain	PPP2R5C +
RPelvicLNMet_A12D-0020_CRUK_PC_0020_M3	RCOR1	1.0	gain	RCOR1 +
RPelvicLNMet_A12D-0020_CRUK_PC_0020_M3	TRAF3	1.0	gain	TRAF3 +
RPelvicLNMet_A12D-0020_CRUK_PC_0020_M3	MARK3	1.0	gain	MARK3 +
RPelvicLNMet_A12D-0020_CRUK_PC_0020_M3	PPP1R13B	1.0	gain	PPP1R13B +
RPelvicLNMet_A12D-0020_CRUK_PC_0020_M3	AKT1	1.0	gain	AKT1 +
RPelvicLNMet_A12D-0020_CRUK_PC_0020_M3	CDCA4	1.0	gain	CDCA4 +
RPelvicLNMet_A12D-0020_CRUK_PC_0020_M3	ZNF117	1.0	gain	ZNF117 +
RPelvicLNMet_A12D-0020_CRUK_PC_0020_M3	WNT16	1.0	gain	WNT16 +
RPelvicLNMet_A12D-0020_CRUK_PC_0020_M3	RNF148	1.0	gain	RNF148 +
RPelvicLNMet_A12D-0020_CRUK_PC_0020_M3	SMO	1.0	gain	SMO +
RPelvicLNMet_A12D-0020_CRUK_PC_0020_M3	AHCYL2	1.0	gain	AHCYL2 +
RPelvicLNMet_A12D-0020_CRUK_PC_0020_M3	STRIP2	1.0	gain	STRIP2 +
RPelvicLNMet_A12D-0020_CRUK_PC_0020_M3	NRF1	1.0	gain	NRF1 +
RPelvicLNMet_A12D-0020_CRUK_PC_0020_M3	COPG2	1.0	gain	COPG2 +
RPelvicLNMet_A12D-0020_CRUK_PC_0020_M3	PLXNA4	1.0	gain	PLXNA4 +
RPelvicLNMet_A12D-0020_CRUK_PC_0020_M3	NUP205	1.0	gain	NUP205 +
RPelvicLNMet_A12D-0020_CRUK_PC_0020_M3	FAM180A	1.0	gain	FAM180A +
RPelvicLNMet_A12D-0020_CRUK_PC_0020_M3	PTN	1.0	gain	PTN +
RPelvicLNMet_A12D-0020_CRUK_PC_0020_M3	DGKI	1.0	gain	DGKI +
RPelvicLNMet_A12D-0020_CRUK_PC_0020_M3	ATP6V0A4	1.0	gain	ATP6V0A4 +
RPelvicLNMet_A12D-0020_CRUK_PC_0020_M3	UBN2	1.0	gain	UBN2 +
RPelvicLNMet_A12D-0020_CRUK_PC_0020_M3	LUC7L2	1.0	gain	LUC7L2 +
RPelvicLNMet_A12D-0020_CRUK_PC_0020_M3	MKRN1	1.0	gain	MKRN1 +
RPelvicLNMet_A12D-0020_CRUK_PC_0020_M3	BRAF	1.0	gain	BRAF +
RPelvicLNMet_A12D-0020_CRUK_PC_0020_M3	TRPV5	1.0	gain	TRPV5 +
RPelvicLNMet_A12D-0020_CRUK_PC_0020_M3	OR9A2	1.0	gain	OR9A2 +
RPelvicLNMet_A12D-0020_CRUK_PC_0020_M3	CLCN1	1.0	gain	CLCN1 +
RPelvicLNMet_A12D-0020_CRUK_PC_0020_M3	TPK1	1.0	gain	TPK1 +
RPelvicLNMet_A12D-0020_CRUK_PC_0020_M3	chr9	0.9985175156649947	loss	9 -
RPelvicLNMet_A12D-0020_CRUK_PC_0020_M3	chr14q	0.9641037673886114	loss	14q -
RPelvicLNMet_A12D-0020_CRUK_PC_0020_M3	BCL9	1.0	loss	BCL9 -
RPelvicLNMet_A12D-0020_CRUK_PC_0020_M3	NBPF9	1.0	loss	NBPF9 -
RPelvicLNMet_A12D-0020_CRUK_PC_0020_M3	HIST2H2BF	1.0	loss	HIST2H2BF -
RPelvicLNMet_A12D-0020_CRUK_PC_0020_M3	CACNA1E	1.0	loss	CACNA1E -
RPelvicLNMet_A12D-0020_CRUK_PC_0020_M3	PLXNA2	1.0	loss	PLXNA2 -
RPelvicLNMet_A12D-0020_CRUK_PC_0020_M3	GPATCH2	1.0	loss	GPATCH2 -
RPelvicLNMet_A12D-0020_CRUK_PC_0020_M3	SPATA17	1.0	loss	SPATA17 -
RPelvicLNMet_A12D-0020_CRUK_PC_0020_M3	KCNN2	1.0	loss	KCNN2 -
RPelvicLNMet_A12D-0020_CRUK_PC_0020_M3	ZNF608	1.0	loss	ZNF608 -
RPelvicLNMet_A12D-0020_CRUK_PC_0020_M3	SLC12A2	1.0	loss	SLC12A2 -
RPelvicLNMet_A12D-0020_CRUK_PC_0020_M3	FBN2	1.0	loss	FBN2 -
RPelvicLNMet_A12D-0020_CRUK_PC_0020_M3	SMARCA2	1.0	loss	SMARCA2 -
RPelvicLNMet_A12D-0020_CRUK_PC_0020_M3	MLANA	1.0	loss	MLANA -
RPelvicLNMet_A12D-0020_CRUK_PC_0020_M3	TYRP1	1.0	loss	TYRP1 -
RPelvicLNMet_A12D-0020_CRUK_PC_0020_M3	PSIP1	1.0	loss	PSIP1 -
RPelvicLNMet_A12D-0020_CRUK_PC_0020_M3	CCDC171	1.0	loss	CCDC171 -
RPelvicLNMet_A12D-0020_CRUK_PC_0020_M3	BNC2	1.0	loss	BNC2 -
RPelvicLNMet_A12D-0020_CRUK_PC_0020_M3	CNTLN	1.0	loss	CNTLN -
RPelvicLNMet_A12D-0020_CRUK_PC_0020_M3	HAUS6	1.0	loss	HAUS6 -
RPelvicLNMet_A12D-0020_CRUK_PC_0020_M3	DENND4C	1.0	loss	DENND4C -
RPelvicLNMet_A12D-0020_CRUK_PC_0020_M3	IFNA10	1.0	loss	IFNA10 -
RPelvicLNMet_A12D-0020_CRUK_PC_0020_M3	CDKN2A	1.0	loss	CDKN2A -
RPelvicLNMet_A12D-0020_CRUK_PC_0020_M3	TEK	1.0	loss	TEK -
RPelvicLNMet_A12D-0020_CRUK_PC_0020_M3	LINGO2	1.0	loss	LINGO2 -
RPelvicLNMet_A12D-0020_CRUK_PC_0020_M3	TAF1L	1.0	loss	TAF1L -
RPelvicLNMet_A12D-0020_CRUK_PC_0020_M3	DNAJB5	1.0	loss	DNAJB5 -
RPelvicLNMet_A12D-0020_CRUK_PC_0020_M3	STOML2	1.0	loss	STOML2 -
RPelvicLNMet_A12D-0020_CRUK_PC_0020_M3	RECK	1.0	loss	RECK -
RPelvicLNMet_A12D-0020_CRUK_PC_0020_M3	SLC25A51	1.0	loss	SLC25A51 -
RPelvicLNMet_A12D-0020_CRUK_PC_0020_M3	SHB	1.0	loss	SHB -
RPelvicLNMet_A12D-0020_CRUK_PC_0020_M3	ZNF658	1.0	loss	ZNF658 -
RPelvicLNMet_A12D-0020_CRUK_PC_0020_M3	PGM5	1.0	loss	PGM5 -
RPelvicLNMet_A12D-0020_CRUK_PC_0020_M3	TJP2	1.0	loss	TJP2 -
RPelvicLNMet_A12D-0020_CRUK_PC_0020_M3	VPS13A	1.0	loss	VPS13A -
RPelvicLNMet_A12D-0020_CRUK_PC_0020_M3	NTRK2	1.0	loss	NTRK2 -
RPelvicLNMet_A12D-0020_CRUK_PC_0020_M3	DIRAS2	1.0	loss	DIRAS2 -
RPelvicLNMet_A12D-0020_CRUK_PC_0020_M3	PTPDC1	1.0	loss	PTPDC1 -
RPelvicLNMet_A12D-0020_CRUK_PC_0020_M3	NUTM2F	1.0	loss	NUTM2F -
RPelvicLNMet_A12D-0020_CRUK_PC_0020_M3	PTCH1	1.0	loss	PTCH1 -
RPelvicLNMet_A12D-0020_CRUK_PC_0020_M3	ZNF367	1.0	loss	ZNF367 -
RPelvicLNMet_A12D-0020_CRUK_PC_0020_M3	ALDOB	1.0	loss	ALDOB -
RPelvicLNMet_A12D-0020_CRUK_PC_0020_M3	KLF4	1.0	loss	KLF4 -
RPelvicLNMet_A12D-0020_CRUK_PC_0020_M3	PTPN3	1.0	loss	PTPN3 -
RPelvicLNMet_A12D-0020_CRUK_PC_0020_M3	PALM2	1.0	loss	PALM2 -
RPelvicLNMet_A12D-0020_CRUK_PC_0020_M3	LPAR1	1.0	loss	LPAR1 -
RPelvicLNMet_A12D-0020_CRUK_PC_0020_M3	OR2K2	1.0	loss	OR2K2 -
RPelvicLNMet_A12D-0020_CRUK_PC_0020_M3	NDUFA8	1.0	loss	NDUFA8 -
RPelvicLNMet_A12D-0020_CRUK_PC_0020_M3	RC3H2	1.0	loss	RC3H2 -
RPelvicLNMet_A12D-0020_CRUK_PC_0020_M3	NR6A1	1.0	loss	NR6A1 -
RPelvicLNMet_A12D-0020_CRUK_PC_0020_M3	PPP6C	1.0	loss	PPP6C -
RPelvicLNMet_A12D-0020_CRUK_PC_0020_M3	GAPVD1	1.0	loss	GAPVD1 -
RPelvicLNMet_A12D-0020_CRUK_PC_0020_M3	STXBP1	1.0	loss	STXBP1 -
RPelvicLNMet_A12D-0020_CRUK_PC_0020_M3	LCN2	1.0	loss	LCN2 -
RPelvicLNMet_A12D-0020_CRUK_PC_0020_M3	CIZ1	1.0	loss	CIZ1 -
RPelvicLNMet_A12D-0020_CRUK_PC_0020_M3	SPTAN1	1.0	loss	SPTAN1 -
RPelvicLNMet_A12D-0020_CRUK_PC_0020_M3	SH3GLB2	1.0	loss	SH3GLB2 -
RPelvicLNMet_A12D-0020_CRUK_PC_0020_M3	TOR1A	1.0	loss	TOR1A -
RPelvicLNMet_A12D-0020_CRUK_PC_0020_M3	GPR107	1.0	loss	GPR107 -
RPelvicLNMet_A12D-0020_CRUK_PC_0020_M3	FUBP3	1.0	loss	FUBP3 -
RPelvicLNMet_A12D-0020_CRUK_PC_0020_M3	AK8	1.0	loss	AK8 -
RPelvicLNMet_A12D-0020_CRUK_PC_0020_M3	GFI1B	1.0	loss	GFI1B -
RPelvicLNMet_A12D-0020_CRUK_PC_0020_M3	CEL	1.0	loss	CEL -
RPelvicLNMet_A12D-0020_CRUK_PC_0020_M3	COL5A1	1.0	loss	COL5A1 -
RPelvicLNMet_A12D-0020_CRUK_PC_0020_M3	NOTCH1	1.0	loss	NOTCH1 -
RPelvicLNMet_A12D-0020_CRUK_PC_0020_M3	RABL6	1.0	loss	RABL6 -
RPelvicLNMet_A12D-0020_CRUK_PC_0020_M3	APEX1	1.0	loss	APEX1 -
RPelvicLNMet_A12D-0020_CRUK_PC_0020_M3	SUPT16H	1.0	loss	SUPT16H -
RPelvicLNMet_A12D-0020_CRUK_PC_0020_M3	CHD8	1.0	loss	CHD8 -
RPelvicLNMet_A12D-0020_CRUK_PC_0020_M3	METTL3	1.0	loss	METTL3 -
RPelvicLNMet_A12D-0020_CRUK_PC_0020_M3	AJUBA	1.0	loss	AJUBA -
RPelvicLNMet_A12D-0020_CRUK_PC_0020_M3	C14orf93	1.0	loss	C14orf93 -
RPelvicLNMet_A12D-0020_CRUK_PC_0020_M3	CDH24	1.0	loss	CDH24 -
RPelvicLNMet_A12D-0020_CRUK_PC_0020_M3	ACIN1	1.0	loss	ACIN1 -
RPelvicLNMet_A12D-0020_CRUK_PC_0020_M3	IL25	1.0	loss	IL25 -
RPelvicLNMet_A12D-0020_CRUK_PC_0020_M3	MYH6	1.0	loss	MYH6 -
RPelvicLNMet_A12D-0020_CRUK_PC_0020_M3	AP1G2	1.0	loss	AP1G2 -
RPelvicLNMet_A12D-0020_CRUK_PC_0020_M3	NFATC4	1.0	loss	NFATC4 -
RPelvicLNMet_A12D-0020_CRUK_PC_0020_M3	CBLN3	1.0	loss	CBLN3 -
RPelvicLNMet_A12D-0020_CRUK_PC_0020_M3	STXBP6	1.0	loss	STXBP6 -
RPelvicLNMet_A12D-0020_CRUK_PC_0020_M3	HECTD1	1.0	loss	HECTD1 -
RPelvicLNMet_A12D-0020_CRUK_PC_0020_M3	ARHGAP5	1.0	loss	ARHGAP5 -
RPelvicLNMet_A12D-0020_CRUK_PC_0020_M3	RALGAPA1	1.0	loss	RALGAPA1 -
RPelvicLNMet_A12D-0020_CRUK_PC_0020_M3	FOXA1	1.0	loss	FOXA1 -
RPelvicLNMet_A12D-0020_CRUK_PC_0020_M3	FANCM	1.0	loss	FANCM -
RPelvicLNMet_A12D-0020_CRUK_PC_0020_M3	MDGA2	1.0	loss	MDGA2 -
RPelvicLNMet_A12D-0020_CRUK_PC_0020_M3	MGAT2	1.0	loss	MGAT2 -
RPelvicLNMet_A12D-0020_CRUK_PC_0020_M3	POLE2	1.0	loss	POLE2 -
RPelvicLNMet_A12D-0020_CRUK_PC_0020_M3	MAP4K5	1.0	loss	MAP4K5 -
RPelvicLNMet_A12D-0020_CRUK_PC_0020_M3	SAV1	1.0	loss	SAV1 -
RPelvicLNMet_A12D-0020_CRUK_PC_0020_M3	GNG2	1.0	loss	GNG2 -
RPelvicLNMet_A12D-0020_CRUK_PC_0020_M3	SAMD4A	1.0	loss	SAMD4A -
RPelvicLNMet_A12D-0020_CRUK_PC_0020_M3	FBXO34	1.0	loss	FBXO34 -
RPelvicLNMet_A12D-0020_CRUK_PC_0020_M3	ATG14	1.0	loss	ATG14 -
RPelvicLNMet_A12D-0020_CRUK_PC_0020_M3	PSMA3	1.0	loss	PSMA3 -
RPelvicLNMet_A12D-0020_CRUK_PC_0020_M3	DAAM1	1.0	loss	DAAM1 -
RPelvicLNMet_A12D-0020_CRUK_PC_0020_M3	SIX6	1.0	loss	SIX6 -
RPelvicLNMet_A12D-0020_CRUK_PC_0020_M3	SNAPC1	1.0	loss	SNAPC1 -
RPelvicLNMet_A12D-0020_CRUK_PC_0020_M3	MAX	1.0	loss	MAX -
RPelvicLNMet_A12D-0020_CRUK_PC_0020_M3	PIGH	1.0	loss	PIGH -
RPelvicLNMet_A12D-0020_CRUK_PC_0020_M3	ZFP36L1	1.0	loss	ZFP36L1 -
RPelvicLNMet_A12D-0020_CRUK_PC_0020_M3	MED6	1.0	loss	MED6 -
RPelvicLNMet_A12D-0020_CRUK_PC_0020_M3	SIPA1L1	1.0	loss	SIPA1L1 -
RPelvicLNMet_A12D-0020_CRUK_PC_0020_M3	ACOT4	1.0	loss	ACOT4 -
RPelvicLNMet_A12D-0020_CRUK_PC_0020_M3	YLPM1	1.0	loss	YLPM1 -
RPelvicLNMet_A12D-0020_CRUK_PC_0020_M3	NEK9	1.0	loss	NEK9 -
RPelvicLNMet_A12D-0020_CRUK_PC_0020_M3	TMED10	1.0	loss	TMED10 -
RPelvicLNMet_A12D-0020_CRUK_PC_0020_M3	SEL1L	1.0	loss	SEL1L -
RPelvicLNMet_A12D-0020_CRUK_PC_0020_M3	FLRT2	1.0	loss	FLRT2 -
RPelvicLNMet_A12D-0020_CRUK_PC_0020_M3	EML5	1.0	loss	EML5 -
RPelvicLNMet_A12D-0020_CRUK_PC_0020_M3	CATSPERB	1.0	loss	CATSPERB -
RPelvicLNMet_A12D-0020_CRUK_PC_0020_M3	MOAP1	1.0	loss	MOAP1 -
RPelvicLNMet_A12D-0020_CRUK_PC_0020_M3	BTBD7	1.0	loss	BTBD7 -
RPelvicLNMet_A12D-0020_CRUK_PC_0020_M3	ASB2	1.0	loss	ASB2 -
RPelvicLNMet_A12D-0020_CRUK_PC_0020_M3	DICER1	1.0	loss	DICER1 -
RPelvicLNMet_A12D-0020_CRUK_PC_0020_M3	PPP2R5C	1.0	loss	PPP2R5C -
RPelvicLNMet_A12D-0020_CRUK_PC_0020_M3	RCOR1	1.0	loss	RCOR1 -
RPelvicLNMet_A12D-0020_CRUK_PC_0020_M3	TRAF3	1.0	loss	TRAF3 -
RPelvicLNMet_A12D-0020_CRUK_PC_0020_M3	MARK3	1.0	loss	MARK3 -
RPelvicLNMet_A12D-0020_CRUK_PC_0020_M3	PPP1R13B	1.0	loss	PPP1R13B -
RPelvicLNMet_A12D-0020_CRUK_PC_0020_M3	AKT1	1.0	loss	AKT1 -
RPelvicLNMet_A12D-0020_CRUK_PC_0020_M3	CDCA4	1.0	loss	CDCA4 -
internal_1	chr6q	1.0	gain	6q +
internal_1	COL9A1	1.0	gain	COL9A1 +
internal_1	FAM135A	1.0	gain	FAM135A +
internal_1	SMAP1	1.0	gain	SMAP1 +
internal_1	RIMS1	1.0	gain	RIMS1 +
internal_1	KCNQ5	1.0	gain	KCNQ5 +
internal_1	OOEP	1.0	gain	OOEP +
internal_1	MTO1	1.0	gain	MTO1 +
internal_1	EEF1A1	1.0	gain	EEF1A1 +
internal_1	COL12A1	1.0	gain	COL12A1 +
internal_1	TMEM30A	1.0	gain	TMEM30A +
internal_1	SENP6	1.0	gain	SENP6 +
internal_1	MYO6	1.0	gain	MYO6 +
internal_1	PHIP	1.0	gain	PHIP +
internal_1	SH3BGRL2	1.0	gain	SH3BGRL2 +
internal_1	TTK	1.0	gain	TTK +
internal_1	DOPEY1	1.0	gain	DOPEY1 +
internal_1	PRSS35	1.0	gain	PRSS35 +
internal_1	SNAP91	1.0	gain	SNAP91 +
internal_1	TBX18	1.0	gain	TBX18 +
internal_1	HTR1E	1.0	gain	HTR1E +
internal_1	ZNF292	1.0	gain	ZNF292 +
internal_1	GABRR2	1.0	gain	GABRR2 +
internal_1	EPHA7	1.0	gain	EPHA7 +
internal_1	MANEA	1.0	gain	MANEA +
internal_1	PNISR	1.0	gain	PNISR +
internal_1	ASCC3	1.0	gain	ASCC3 +
internal_1	LIN28B	1.0	gain	LIN28B +
internal_1	ATG5	1.0	gain	ATG5 +
internal_1	RTN4IP1	1.0	gain	RTN4IP1 +
internal_1	C6orf203	1.0	gain	C6orf203 +
internal_1	SEC63	1.0	gain	SEC63 +
internal_1	MICAL1	1.0	gain	MICAL1 +
internal_1	ZBTB24	1.0	gain	ZBTB24 +
internal_1	DDO	1.0	gain	DDO +
internal_1	GTF3C6	1.0	gain	GTF3C6 +
internal_1	SLC16A10	1.0	gain	SLC16A10 +
internal_1	HDAC2	1.0	gain	HDAC2 +
internal_1	HS3ST5	1.0	gain	HS3ST5 +
internal_1	SLC35F1	1.0	gain	SLC35F1 +
internal_1	PLN	1.0	gain	PLN +
internal_1	FAM184A	1.0	gain	FAM184A +
internal_1	GJA1	1.0	gain	GJA1 +
internal_1	TRDN	1.0	gain	TRDN +
internal_1	RNF217	1.0	gain	RNF217 +
internal_1	PTPRK	1.0	gain	PTPRK +
internal_1	LAMA2	1.0	gain	LAMA2 +
internal_1	MED23	1.0	gain	MED23 +
internal_1	STX7	1.0	gain	STX7 +
internal_1	EYA4	1.0	gain	EYA4 +
internal_1	ALDH8A1	1.0	gain	ALDH8A1 +
internal_1	HBS1L	1.0	gain	HBS1L +
internal_1	MYB	1.0	gain	MYB +
internal_1	PDE7B	1.0	gain	PDE7B +
internal_1	BCLAF1	1.0	gain	BCLAF1 +
internal_1	IFNGR1	1.0	gain	IFNGR1 +
internal_1	HECA	1.0	gain	HECA +
internal_1	SHPRH	1.0	gain	SHPRH +
internal_1	GRM1	1.0	gain	GRM1 +
internal_1	STXBP5	1.0	gain	STXBP5 +
internal_1	OPRM1	1.0	gain	OPRM1 +
internal_1	SCAF8	1.0	gain	SCAF8 +
internal_1	ARID1B	1.0	gain	ARID1B +
internal_1	LPA	1.0	gain	LPA +
internal_1	MAP3K4	1.0	gain	MAP3K4 +
internal_1	PDE10A	1.0	gain	PDE10A +
internal_1	MLLT4	1.0	gain	MLLT4 +
internal_1	KIF25	1.0	gain	KIF25 +
internal_1	SMOC2	1.0	gain	SMOC2 +
internal_1	chr6q	0.9807230023168392	loss	6q -
internal_1	COL9A1	1.0	loss	COL9A1 -
internal_1	FAM135A	1.0	loss	FAM135A -
internal_1	SMAP1	1.0	loss	SMAP1 -
internal_1	RIMS1	1.0	loss	RIMS1 -
internal_1	KCNQ5	1.0	loss	KCNQ5 -
internal_1	OOEP	1.0	loss	OOEP -
internal_1	MTO1	1.0	loss	MTO1 -
internal_1	EEF1A1	1.0	loss	EEF1A1 -
internal_1	COL12A1	1.0	loss	COL12A1 -
internal_1	TMEM30A	1.0	loss	TMEM30A -
internal_1	SENP6	1.0	loss	SENP6 -
internal_1	MYO6	1.0	loss	MYO6 -
internal_1	PHIP	1.0	loss	PHIP -
internal_1	SH3BGRL2	1.0	loss	SH3BGRL2 -
internal_1	TTK	1.0	loss	TTK -
internal_1	DOPEY1	1.0	loss	DOPEY1 -
internal_1	PRSS35	1.0	loss	PRSS35 -
internal_1	SNAP91	1.0	loss	SNAP91 -
internal_1	TBX18	1.0	loss	TBX18 -
internal_1	HTR1E	1.0	loss	HTR1E -
internal_1	ZNF292	1.0	loss	ZNF292 -
internal_1	GABRR2	1.0	loss	GABRR2 -
internal_1	EPHA7	1.0	loss	EPHA7 -
internal_1	MANEA	1.0	loss	MANEA -
internal_1	PNISR	1.0	loss	PNISR -
internal_1	ASCC3	1.0	loss	ASCC3 -
internal_1	LIN28B	1.0	loss	LIN28B -
internal_1	ATG5	1.0	loss	ATG5 -
internal_1	RTN4IP1	1.0	loss	RTN4IP1 -
internal_1	C6orf203	1.0	loss	C6orf203 -
internal_1	SEC63	1.0	loss	SEC63 -
internal_1	MICAL1	1.0	loss	MICAL1 -
internal_1	ZBTB24	1.0	loss	ZBTB24 -
internal_1	DDO	1.0	loss	DDO -
internal_1	GTF3C6	1.0	loss	GTF3C6 -
internal_1	SLC16A10	1.0	loss	SLC16A10 -
internal_1	HDAC2	1.0	loss	HDAC2 -
internal_1	HS3ST5	1.0	loss	HS3ST5 -
internal_1	SLC35F1	1.0	loss	SLC35F1 -
internal_1	PLN	1.0	loss	PLN -
internal_1	FAM184A	1.0	loss	FAM184A -
internal_1	GJA1	1.0	loss	GJA1 -
internal_1	TRDN	1.0	loss	TRDN -
internal_1	RNF217	1.0	loss	RNF217 -
internal_1	PTPRK	1.0	loss	PTPRK -
internal_1	LAMA2	1.0	loss	LAMA2 -
internal_1	MED23	1.0	loss	MED23 -
internal_1	STX7	1.0	loss	STX7 -
internal_1	EYA4	1.0	loss	EYA4 -
internal_1	ALDH8A1	1.0	loss	ALDH8A1 -
internal_1	HBS1L	1.0	loss	HBS1L -
internal_1	MYB	1.0	loss	MYB -
internal_1	PDE7B	1.0	loss	PDE7B -
internal_1	BCLAF1	1.0	loss	BCLAF1 -
internal_1	IFNGR1	1.0	loss	IFNGR1 -
internal_1	HECA	1.0	loss	HECA -
internal_1	SHPRH	1.0	loss	SHPRH -
internal_1	GRM1	1.0	loss	GRM1 -
internal_1	STXBP5	1.0	loss	STXBP5 -
internal_1	OPRM1	1.0	loss	OPRM1 -
internal_1	SCAF8	1.0	loss	SCAF8 -
internal_1	ARID1B	1.0	loss	ARID1B -
internal_1	LPA	1.0	loss	LPA -
internal_1	MAP3K4	1.0	loss	MAP3K4 -
internal_1	PDE10A	1.0	loss	PDE10A -
internal_1	MLLT4	1.0	loss	MLLT4 -
internal_1	KIF25	1.0	loss	KIF25 -
internal_1	SMOC2	1.0	loss	SMOC2 -
MediastinalLNMet_A12A-0020_CRUK_PC_0020_M1	chr6p	0.9557452173913044	gain	6p +
MediastinalLNMet_A12A-0020_CRUK_PC_0020_M1	chr7	0.9981172100282697	gain	7 +
MediastinalLNMet_A12A-0020_CRUK_PC_0020_M1	FOXQ1	1.0	gain	FOXQ1 +
MediastinalLNMet_A12A-0020_CRUK_PC_0020_M1	NEDD9	1.0	gain	NEDD9 +
MediastinalLNMet_A12A-0020_CRUK_PC_0020_M1	MCUR1	1.0	gain	MCUR1 +
MediastinalLNMet_A12A-0020_CRUK_PC_0020_M1	FAM8A1	1.0	gain	FAM8A1 +
MediastinalLNMet_A12A-0020_CRUK_PC_0020_M1	MRS2	1.0	gain	MRS2 +
MediastinalLNMet_A12A-0020_CRUK_PC_0020_M1	HIST1H2AA	1.0	gain	HIST1H2AA +
MediastinalLNMet_A12A-0020_CRUK_PC_0020_M1	HIST1H3B	1.0	gain	HIST1H3B +
MediastinalLNMet_A12A-0020_CRUK_PC_0020_M1	HIST1H2BF	1.0	gain	HIST1H2BF +
MediastinalLNMet_A12A-0020_CRUK_PC_0020_M1	BTN3A2	1.0	gain	BTN3A2 +
MediastinalLNMet_A12A-0020_CRUK_PC_0020_M1	HLA-A	1.0	gain	HLA-A +
MediastinalLNMet_A12A-0020_CRUK_PC_0020_M1	HLA-B	1.0	gain	HLA-B +
MediastinalLNMet_A12A-0020_CRUK_PC_0020_M1	BAG6	1.0	gain	BAG6 +
MediastinalLNMet_A12A-0020_CRUK_PC_0020_M1	ABHD16A	1.0	gain	ABHD16A +
MediastinalLNMet_A12A-0020_CRUK_PC_0020_M1	STK19	1.0	gain	STK19 +
MediastinalLNMet_A12A-0020_CRUK_PC_0020_M1	PPT2	1.0	gain	PPT2 +
MediastinalLNMet_A12A-0020_CRUK_PC_0020_M1	RNF5	1.0	gain	RNF5 +
MediastinalLNMet_A12A-0020_CRUK_PC_0020_M1	HLA-DRA	1.0	gain	HLA-DRA +
MediastinalLNMet_A12A-0020_CRUK_PC_0020_M1	HLA-DRB1	1.0	gain	HLA-DRB1 +
MediastinalLNMet_A12A-0020_CRUK_PC_0020_M1	RXRB	1.0	gain	RXRB +
MediastinalLNMet_A12A-0020_CRUK_PC_0020_M1	LEMD2	1.0	gain	LEMD2 +
MediastinalLNMet_A12A-0020_CRUK_PC_0020_M1	ZNF76	1.0	gain	ZNF76 +
MediastinalLNMet_A12A-0020_CRUK_PC_0020_M1	STK38	1.0	gain	STK38 +
MediastinalLNMet_A12A-0020_CRUK_PC_0020_M1	CDKN1A	1.0	gain	CDKN1A +
MediastinalLNMet_A12A-0020_CRUK_PC_0020_M1	MDGA1	1.0	gain	MDGA1 +
MediastinalLNMet_A12A-0020_CRUK_PC_0020_M1	DNAH8	1.0	gain	DNAH8 +
MediastinalLNMet_A12A-0020_CRUK_PC_0020_M1	OARD1	1.0	gain	OARD1 +
MediastinalLNMet_A12A-0020_CRUK_PC_0020_M1	CCND3	1.0	gain	CCND3 +
MediastinalLNMet_A12A-0020_CRUK_PC_0020_M1	PRPH2	1.0	gain	PRPH2 +
MediastinalLNMet_A12A-0020_CRUK_PC_0020_M1	ZNF318	1.0	gain	ZNF318 +
MediastinalLNMet_A12A-0020_CRUK_PC_0020_M1	HSP90AB1	1.0	gain	HSP90AB1 +
MediastinalLNMet_A12A-0020_CRUK_PC_0020_M1	SLC35B2	1.0	gain	SLC35B2 +
MediastinalLNMet_A12A-0020_CRUK_PC_0020_M1	TMEM151B	1.0	gain	TMEM151B +
MediastinalLNMet_A12A-0020_CRUK_PC_0020_M1	DEFB114	1.0	gain	DEFB114 +
MediastinalLNMet_A12A-0020_CRUK_PC_0020_M1	DEFB113	1.0	gain	DEFB113 +
MediastinalLNMet_A12A-0020_CRUK_PC_0020_M1	TINAG	1.0	gain	TINAG +
MediastinalLNMet_A12A-0020_CRUK_PC_0020_M1	HCRTR2	1.0	gain	HCRTR2 +
MediastinalLNMet_A12A-0020_CRUK_PC_0020_M1	BMP5	1.0	gain	BMP5 +
MediastinalLNMet_A12A-0020_CRUK_PC_0020_M1	COL21A1	1.0	gain	COL21A1 +
MediastinalLNMet_A12A-0020_CRUK_PC_0020_M1	DST	1.0	gain	DST +
MediastinalLNMet_A12A-0020_CRUK_PC_0020_M1	ZNF451	1.0	gain	ZNF451 +
MediastinalLNMet_A12A-0020_CRUK_PC_0020_M1	C7orf50	1.0	gain	C7orf50 +
MediastinalLNMet_A12A-0020_CRUK_PC_0020_M1	UNCX	1.0	gain	UNCX +
MediastinalLNMet_A12A-0020_CRUK_PC_0020_M1	NUDT1	1.0	gain	NUDT1 +
MediastinalLNMet_A12A-0020_CRUK_PC_0020_M1	SDK1	1.0	gain	SDK1 +
MediastinalLNMet_A12A-0020_CRUK_PC_0020_M1	FOXK1	1.0	gain	FOXK1 +
MediastinalLNMet_A12A-0020_CRUK_PC_0020_M1	TNRC18	1.0	gain	TNRC18 +
MediastinalLNMet_A12A-0020_CRUK_PC_0020_M1	RAC1	1.0	gain	RAC1 +
MediastinalLNMet_A12A-0020_CRUK_PC_0020_M1	ZNF12	1.0	gain	ZNF12 +
MediastinalLNMet_A12A-0020_CRUK_PC_0020_M1	PHF14	1.0	gain	PHF14 +
MediastinalLNMet_A12A-0020_CRUK_PC_0020_M1	ETV1	1.0	gain	ETV1 +
MediastinalLNMet_A12A-0020_CRUK_PC_0020_M1	BZW2	1.0	gain	BZW2 +
MediastinalLNMet_A12A-0020_CRUK_PC_0020_M1	AHR	1.0	gain	AHR +
MediastinalLNMet_A12A-0020_CRUK_PC_0020_M1	CDCA7L	1.0	gain	CDCA7L +
MediastinalLNMet_A12A-0020_CRUK_PC_0020_M1	STEAP1B	1.0	gain	STEAP1B +
MediastinalLNMet_A12A-0020_CRUK_PC_0020_M1	NFE2L3	1.0	gain	NFE2L3 +
MediastinalLNMet_A12A-0020_CRUK_PC_0020_M1	SKAP2	1.0	gain	SKAP2 +
MediastinalLNMet_A12A-0020_CRUK_PC_0020_M1	ZNRF2	1.0	gain	ZNRF2 +
MediastinalLNMet_A12A-0020_CRUK_PC_0020_M1	GGCT	1.0	gain	GGCT +
MediastinalLNMet_A12A-0020_CRUK_PC_0020_M1	NEUROD6	1.0	gain	NEUROD6 +
MediastinalLNMet_A12A-0020_CRUK_PC_0020_M1	AVL9	1.0	gain	AVL9 +
MediastinalLNMet_A12A-0020_CRUK_PC_0020_M1	NT5C3A	1.0	gain	NT5C3A +
MediastinalLNMet_A12A-0020_CRUK_PC_0020_M1	AOAH	1.0	gain	AOAH +
MediastinalLNMet_A12A-0020_CRUK_PC_0020_M1	ELMO1	1.0	gain	ELMO1 +
MediastinalLNMet_A12A-0020_CRUK_PC_0020_M1	GPR141	1.0	gain	GPR141 +
MediastinalLNMet_A12A-0020_CRUK_PC_0020_M1	SFRP4	1.0	gain	SFRP4 +
MediastinalLNMet_A12A-0020_CRUK_PC_0020_M1	INHBA	1.0	gain	INHBA +
MediastinalLNMet_A12A-0020_CRUK_PC_0020_M1	MRPL32	1.0	gain	MRPL32 +
MediastinalLNMet_A12A-0020_CRUK_PC_0020_M1	POLM	1.0	gain	POLM +
MediastinalLNMet_A12A-0020_CRUK_PC_0020_M1	PURB	1.0	gain	PURB +
MediastinalLNMet_A12A-0020_CRUK_PC_0020_M1	ZPBP	1.0	gain	ZPBP +
MediastinalLNMet_A12A-0020_CRUK_PC_0020_M1	VSTM2A	1.0	gain	VSTM2A +
MediastinalLNMet_A12A-0020_CRUK_PC_0020_M1	EGFR	1.0	gain	EGFR +
MediastinalLNMet_A12A-0020_CRUK_PC_0020_M1	SEPT14	1.0	gain	SEPT14 +
MediastinalLNMet_A12A-0020_CRUK_PC_0020_M1	GBAS	1.0	gain	GBAS +
MediastinalLNMet_A12A-0020_CRUK_PC_0020_M1	PSPH	1.0	gain	PSPH +
MediastinalLNMet_A12A-0020_CRUK_PC_0020_M1	ZNF479	1.0	gain	ZNF479 +
MediastinalLNMet_A12A-0020_CRUK_PC_0020_M1	ZNF117	1.0	gain	ZNF117 +
MediastinalLNMet_A12A-0020_CRUK_PC_0020_M1	GUSB	1.0	gain	GUSB +
MediastinalLNMet_A12A-0020_CRUK_PC_0020_M1	WBSCR17	1.0	gain	WBSCR17 +
MediastinalLNMet_A12A-0020_CRUK_PC_0020_M1	LAT2	1.0	gain	LAT2 +
MediastinalLNMet_A12A-0020_CRUK_PC_0020_M1	GTF2I	1.0	gain	GTF2I +
MediastinalLNMet_A12A-0020_CRUK_PC_0020_M1	NCF1	1.0	gain	NCF1 +
MediastinalLNMet_A12A-0020_CRUK_PC_0020_M1	SPDYE5	1.0	gain	SPDYE5 +
MediastinalLNMet_A12A-0020_CRUK_PC_0020_M1	PTPN12	1.0	gain	PTPN12 +
MediastinalLNMet_A12A-0020_CRUK_PC_0020_M1	MAGI2	1.0	gain	MAGI2 +
MediastinalLNMet_A12A-0020_CRUK_PC_0020_M1	HGF	1.0	gain	HGF +
MediastinalLNMet_A12A-0020_CRUK_PC_0020_M1	SEMA3A	1.0	gain	SEMA3A +
MediastinalLNMet_A12A-0020_CRUK_PC_0020_M1	ABCB1	1.0	gain	ABCB1 +
MediastinalLNMet_A12A-0020_CRUK_PC_0020_M1	ANKIB1	1.0	gain	ANKIB1 +
MediastinalLNMet_A12A-0020_CRUK_PC_0020_M1	PEX1	1.0	gain	PEX1 +
MediastinalLNMet_A12A-0020_CRUK_PC_0020_M1	HEPACAM2	1.0	gain	HEPACAM2 +
MediastinalLNMet_A12A-0020_CRUK_PC_0020_M1	COL1A2	1.0	gain	COL1A2 +
MediastinalLNMet_A12A-0020_CRUK_PC_0020_M1	PPP1R9A	1.0	gain	PPP1R9A +
MediastinalLNMet_A12A-0020_CRUK_PC_0020_M1	DYNC1I1	1.0	gain	DYNC1I1 +
MediastinalLNMet_A12A-0020_CRUK_PC_0020_M1	SLC25A13	1.0	gain	SLC25A13 +
MediastinalLNMet_A12A-0020_CRUK_PC_0020_M1	GJC3	1.0	gain	GJC3 +
MediastinalLNMet_A12A-0020_CRUK_PC_0020_M1	MCM7	1.0	gain	MCM7 +
MediastinalLNMet_A12A-0020_CRUK_PC_0020_M1	AP4M1	1.0	gain	AP4M1 +
MediastinalLNMet_A12A-0020_CRUK_PC_0020_M1	LAMTOR4	1.0	gain	LAMTOR4 +
MediastinalLNMet_A12A-0020_CRUK_PC_0020_M1	CUX1	1.0	gain	CUX1 +
MediastinalLNMet_A12A-0020_CRUK_PC_0020_M1	RELN	1.0	gain	RELN +
MediastinalLNMet_A12A-0020_CRUK_PC_0020_M1	KMT2E	1.0	gain	KMT2E +
MediastinalLNMet_A12A-0020_CRUK_PC_0020_M1	PUS7	1.0	gain	PUS7 +
MediastinalLNMet_A12A-0020_CRUK_PC_0020_M1	NAMPT	1.0	gain	NAMPT +
MediastinalLNMet_A12A-0020_CRUK_PC_0020_M1	CBLL1	1.0	gain	CBLL1 +
MediastinalLNMet_A12A-0020_CRUK_PC_0020_M1	SLC26A3	1.0	gain	SLC26A3 +
MediastinalLNMet_A12A-0020_CRUK_PC_0020_M1	MDFIC	1.0	gain	MDFIC +
MediastinalLNMet_A12A-0020_CRUK_PC_0020_M1	TES	1.0	gain	TES +
MediastinalLNMet_A12A-0020_CRUK_PC_0020_M1	WNT16	1.0	gain	WNT16 +
MediastinalLNMet_A12A-0020_CRUK_PC_0020_M1	RNF148	1.0	gain	RNF148 +
MediastinalLNMet_A12A-0020_CRUK_PC_0020_M1	SMO	1.0	gain	SMO +
MediastinalLNMet_A12A-0020_CRUK_PC_0020_M1	AHCYL2	1.0	gain	AHCYL2 +
MediastinalLNMet_A12A-0020_CRUK_PC_0020_M1	STRIP2	1.0	gain	STRIP2 +
MediastinalLNMet_A12A-0020_CRUK_PC_0020_M1	NRF1	1.0	gain	NRF1 +
MediastinalLNMet_A12A-0020_CRUK_PC_0020_M1	COPG2	1.0	gain	COPG2 +
MediastinalLNMet_A12A-0020_CRUK_PC_0020_M1	PLXNA4	1.0	gain	PLXNA4 +
MediastinalLNMet_A12A-0020_CRUK_PC_0020_M1	NUP205	1.0	gain	NUP205 +
MediastinalLNMet_A12A-0020_CRUK_PC_0020_M1	FAM180A	1.0	gain	FAM180A +
MediastinalLNMet_A12A-0020_CRUK_PC_0020_M1	PTN	1.0	gain	PTN +
MediastinalLNMet_A12A-0020_CRUK_PC_0020_M1	DGKI	1.0	gain	DGKI +
MediastinalLNMet_A12A-0020_CRUK_PC_0020_M1	ATP6V0A4	1.0	gain	ATP6V0A4 +
MediastinalLNMet_A12A-0020_CRUK_PC_0020_M1	UBN2	1.0	gain	UBN2 +
MediastinalLNMet_A12A-0020_CRUK_PC_0020_M1	LUC7L2	1.0	gain	LUC7L2 +
MediastinalLNMet_A12A-0020_CRUK_PC_0020_M1	MKRN1	1.0	gain	MKRN1 +
MediastinalLNMet_A12A-0020_CRUK_PC_0020_M1	BRAF	1.0	gain	BRAF +
MediastinalLNMet_A12A-0020_CRUK_PC_0020_M1	TRPV5	1.0	gain	TRPV5 +
MediastinalLNMet_A12A-0020_CRUK_PC_0020_M1	OR9A2	1.0	gain	OR9A2 +
MediastinalLNMet_A12A-0020_CRUK_PC_0020_M1	CLCN1	1.0	gain	CLCN1 +
MediastinalLNMet_A12A-0020_CRUK_PC_0020_M1	TPK1	1.0	gain	TPK1 +
MediastinalLNMet_A12A-0020_CRUK_PC_0020_M1	CUL1	1.0	gain	CUL1 +
MediastinalLNMet_A12A-0020_CRUK_PC_0020_M1	EZH2	1.0	gain	EZH2 +
MediastinalLNMet_A12A-0020_CRUK_PC_0020_M1	CHPF2	1.0	gain	CHPF2 +
MediastinalLNMet_A12A-0020_CRUK_PC_0020_M1	KMT2C	1.0	gain	KMT2C +
MediastinalLNMet_A12A-0020_CRUK_PC_0020_M1	CNPY1	1.0	gain	CNPY1 +
ParaaorticLNMet_A12C-0020_CRUK_PC_0020_M2	SDK1	1.0	gain	SDK1 +
ParaaorticLNMet_A12C-0020_CRUK_PC_0020_M2	FOXK1	1.0	gain	FOXK1 +
ParaaorticLNMet_A12C-0020_CRUK_PC_0020_M2	TNRC18	1.0	gain	TNRC18 +
ParaaorticLNMet_A12C-0020_CRUK_PC_0020_M2	MLANA	1.0	loss	MLANA -
ParaaorticLNMet_A12C-0020_CRUK_PC_0020_M2	TYRP1	1.0	loss	TYRP1 -
ParaaorticLNMet_A12C-0020_CRUK_PC_0020_M2	SDK1	1.0	gain	SDK1 +
ParaaorticLNMet_A12C-0020_CRUK_PC_0020_M2	FOXK1	1.0	gain	FOXK1 +
ParaaorticLNMet_A12C-0020_CRUK_PC_0020_M2	TNRC18	1.0	gain	TNRC18 +
