sample_id	chrom	start	end	allele	type	cn_child
internal_2	chr1	58009588	117588634	cn_a	loh	0
internal_2	chr1	226228627	249219621	cn_a	loh	0
internal_2	chr4	81303	42272984	cn_a	gain	2
internal_2	chr4	88531407	190713992	cn_a	gain	2
internal_2	chr5	3522987	33823824	cn_a	gain	2
internal_2	chr7	137539840	159127655	cn_a	loh	0
internal_2	chr8	49557732	53539869	cn_a	loh	0
internal_2	chr8	68726606	75479624	cn_a	gain	3
internal_2	chr8	68726606	101639576	cn_a	gain	2
internal_2	chr17	44808902	79903958	cn_a	gain	2
internal_2	chr20	49634885	62954871	cn_a	gain	2
internal_2	chr1	768253	14177608	cn_b	loh	0
internal_2	chr1	65341002	67481038	cn_b	loh	0
internal_2	chr1	149892872	156988792	cn_b	gain	2
internal_2	chr2	141798164	143390491	cn_b	loh	0
internal_2	chr2	193204046	198302701	cn_b	gain	2
internal_2	chr2	199742271	200932979	cn_b	loh	0
internal_2	chr4	81303	105866724	cn_b	loh	0
internal_2	chr4	155346820	190713992	cn_b	loh	0
internal_2	chr5	71608114	81345342	cn_b	loh	0
internal_2	chr5	84465036	127223464	cn_b	loh	0
internal_2	chr6	209462	11878279	cn_b	loh	0
internal_2	chr6	81055733	117995353	cn_b	loh	0
internal_2	chr6	118373039	150083787	cn_b	gain	2
internal_2	chr7	1280952	9583837	cn_b	loh	0
internal_2	chr8	121907688	125358276	cn_b	loh	0
internal_2	chr8	128743093	136760153	cn_b	gain	2
internal_2	chr10	90164	7094090	cn_b	loh	0
internal_2	chr10	45449678	77683563	cn_b	gain	2
internal_2	chr11	688091	8324546	cn_b	loh	0
internal_2	chr11	21924416	24205380	cn_b	loh	0
internal_2	chr11	56726749	59570728	cn_b	loh	0
internal_2	chr13	28412555	75556026	cn_b	loh	0
internal_2	chr14	42264919	44691185	cn_b	loh	0
internal_2	chr17	4313878	21539745	cn_b	loh	0
internal_2	chr18	31332460	33873415	cn_b	loh	0
internal_2	chr18	40903331	78017073	cn_b	loh	0
internal_2	chr19	44159489	47696336	cn_b	loh	0
LiverMet3_A34A-0022_CRUK_PC_0022_M1	chr3	112278259	167215540	cn_a	gain	2
LiverMet3_A34A-0022_CRUK_PC_0022_M1	chr5	116465497	149492455	cn_a	gain	2
LiverMet3_A34A-0022_CRUK_PC_0022_M1	chr5	120934758	147298497	cn_a	gain	3
LiverMet3_A34A-0022_CRUK_PC_0022_M1	chr7	105062370	118916162	cn_a	loh	0
LiverMet3_A34A-0022_CRUK_PC_0022_M1	chr7	132430093	137538467	cn_a	loh	0
LiverMet3_A34A-0022_CRUK_PC_0022_M1	chr8	18699820	20065362	cn_a	gain	2
LiverMet3_A34A-0022_CRUK_PC_0022_M1	chr8	46857328	48999482	cn_a	loh	0
LiverMet3_A34A-0022_CRUK_PC_0022_M1	chr12	58077416	121113847	cn_a	gain	2
LiverMet3_A34A-0022_CRUK_PC_0022_M1	chr3	12825513	23234113	cn_b	loh	0
LiverMet3_A34A-0022_CRUK_PC_0022_M1	chr5	166587744	167598091	cn_b	loh	0
LiverMet3_A34A-0022_CRUK_PC_0022_M1	chr7	13127250	42533050	cn_b	gain	2
LiverMet3_A34A-0022_CRUK_PC_0022_M1	chr8	37707898	43815096	cn_b	loh	0
LiverMet3_A34A-0022_CRUK_PC_0022_M1	chr8	67558037	90710397	cn_b	gain	2
LiverMet3_A34A-0022_CRUK_PC_0022_M1	chr8	96192855	128721597	cn_b	gain	2
LiverMet3_A34A-0022_CRUK_PC_0022_M1	chr10	21857241	35184378	cn_b	loh	0
LiverMet3_A34A-0022_CRUK_PC_0022_M1	chr13	113515575	114967442	cn_b	loh	0
LiverMet3_A34A-0022_CRUK_PC_0022_M1	chr17	29227697	32628336	cn_b	loh	0
LiverMet3_A34A-0022_CRUK_PC_0022_M1	chr17	54572895	79903958	cn_b	gain	2
internal_1	chr4	36498379	42272984	cn_a	loss	1
internal_1	chr4	166622564	190713992	cn_a	loss	1
internal_1	chr5	141085108	165877057	cn_a	gain	2
internal_1	chr5	167604843	180685900	cn_a	gain	2
internal_1	chr6	11985499	36616698	cn_a	gain	2
internal_1	chr8	8092405	21709512	cn_a	gain	2
internal_1	chr10	125583132	135229239	cn_a	loh	0
internal_1	chr11	39363176	49701782	cn_a	gain	2
internal_1	chr12	102154216	133832256	cn_a	gain	2
internal_1	chr12	103312337	133832256	cn_a	gain	3
internal_1	chr1	14180703	20511613	cn_b	gain	2
internal_1	chr1	154340789	217493663	cn_b	gain	3
internal_1	chr2	144374281	147052244	cn_b	gain	2
internal_1	chr2	239478456	242985493	cn_b	loh	0
internal_1	chr5	10593336	17476113	cn_b	loh	0
internal_1	chr7	9584446	57985251	cn_b	gain	2
internal_1	chr8	62198278	94130306	cn_b	gain	2
internal_1	chr10	7096005	20886642	cn_b	loh	0
internal_1	chr11	90858427	134672955	cn_b	loh	0
internal_1	chr14	100603800	102346363	cn_b	loh	0
internal_1	chr17	49685542	54571413	cn_b	loh	0
LiverMet12_A34D-0022_CRUK_PC_0022_M3	chr6	209462	11878279	cn_a	gain	2
LiverMet12_A34D-0022_CRUK_PC_0022_M3	chr7	55841908	57985251	cn_a	loh	0
LiverMet12_A34D-0022_CRUK_PC_0022_M3	chr8	16552721	17626950	cn_a	loss	1
LiverMet12_A34D-0022_CRUK_PC_0022_M3	chr8	37707898	48999482	cn_a	loh	0
LiverMet12_A34D-0022_CRUK_PC_0022_M3	chr8	96192855	104952057	cn_a	gain	3
LiverMet1_A34C-0022_CRUK_PC_0022_M2	chr6	121998383	170919735	cn_a	loh	0
LiverMet1_A34C-0022_CRUK_PC_0022_M2	chr8	92514808	101639576	cn_a	gain	3
LiverMet1_A34C-0022_CRUK_PC_0022_M2	chr8	121907688	125358276	cn_a	gain	2
LiverMet1_A34C-0022_CRUK_PC_0022_M2	chr8	128743093	129811866	cn_a	gain	2
LiverMet1_A34C-0022_CRUK_PC_0022_M2	chr10	23711476	39065576	cn_a	loh	0
LiverMet1_A34C-0022_CRUK_PC_0022_M2	chr20	51408579	53467389	cn_a	loss	1
LiverMet1_A34C-0022_CRUK_PC_0022_M2	chr3	380074	59052113	cn_b	loh	0
LiverMet1_A34C-0022_CRUK_PC_0022_M2	chr5	147691404	152852622	cn_b	loh	0
LiverMet1_A34C-0022_CRUK_PC_0022_M2	chr8	37707898	48999482	cn_b	loh	0
