sample_id	chrom	start	end	cn_a	cn_b
ProstateCA_A29C-0017_CRUK_PC_0017_T1	1	773106	111323464	5	0
ProstateCA_A29C-0017_CRUK_PC_0017_T1	1	111326618	117343481	6	0
ProstateCA_A29C-0017_CRUK_PC_0017_T1	1	117476466	121350213	5	0
ProstateCA_A29C-0017_CRUK_PC_0017_T1	1	145399296	153788211	6	0
ProstateCA_A29C-0017_CRUK_PC_0017_T1	1	153792958	157101925	9	0
ProstateCA_A29C-0017_CRUK_PC_0017_T1	1	157130436	199301087	6	0
ProstateCA_A29C-0017_CRUK_PC_0017_T1	1	199304082	241819695	6	0
ProstateCA_A29C-0017_CRUK_PC_0017_T1	1	242424607	249229734	6	0
ProstateCA_A29C-0017_CRUK_PC_0017_T1	2	19803	19021776	5	1
ProstateCA_A29C-0017_CRUK_PC_0017_T1	2	19765391	28535061	5	1
ProstateCA_A29C-0017_CRUK_PC_0017_T1	2	28617932	30265966	5	1
ProstateCA_A29C-0017_CRUK_PC_0017_T1	2	30288509	75085163	5	0
ProstateCA_A29C-0017_CRUK_PC_0017_T1	2	75089454	92266269	5	1
ProstateCA_A29C-0017_CRUK_PC_0017_T1	2	95439758	103619483	5	1
ProstateCA_A29C-0017_CRUK_PC_0017_T1	2	103641828	106633402	5	1
ProstateCA_A29C-0017_CRUK_PC_0017_T1	2	106634447	108063018	11	2
ProstateCA_A29C-0017_CRUK_PC_0017_T1	2	108066662	121686882	6	2
ProstateCA_A29C-0017_CRUK_PC_0017_T1	2	121754663	125953558	5	1
ProstateCA_A29C-0017_CRUK_PC_0017_T1	2	125954272	127970385	3	1
ProstateCA_A29C-0017_CRUK_PC_0017_T1	2	129542173	130696327	3	1
ProstateCA_A29C-0017_CRUK_PC_0017_T1	2	130740562	136151774	1	0
ProstateCA_A29C-0017_CRUK_PC_0017_T1	2	136152802	138979176	3	1
ProstateCA_A29C-0017_CRUK_PC_0017_T1	2	139312853	141606465	3	1
ProstateCA_A29C-0017_CRUK_PC_0017_T1	2	141641929	143689935	3	1
ProstateCA_A29C-0017_CRUK_PC_0017_T1	2	144988733	147742514	2	1
ProstateCA_A29C-0017_CRUK_PC_0017_T1	2	148553487	149611552	2	1
ProstateCA_A29C-0017_CRUK_PC_0017_T1	2	150514736	152566087	2	1
ProstateCA_A29C-0017_CRUK_PC_0017_T1	2	152666816	155164091	2	1
ProstateCA_A29C-0017_CRUK_PC_0017_T1	2	155170070	158098935	2	1
ProstateCA_A29C-0017_CRUK_PC_0017_T1	2	158889058	159976285	2	1
ProstateCA_A29C-0017_CRUK_PC_0017_T1	2	159979212	161280776	3	1
ProstateCA_A29C-0017_CRUK_PC_0017_T1	2	161294583	166056000	3	1
ProstateCA_A29C-0017_CRUK_PC_0017_T1	2	166945843	169239686	3	1
ProstateCA_A29C-0017_CRUK_PC_0017_T1	2	170275857	172431121	3	1
ProstateCA_A29C-0017_CRUK_PC_0017_T1	2	172449928	174374002	2	1
ProstateCA_A29C-0017_CRUK_PC_0017_T1	2	174454010	175495461	3	1
ProstateCA_A29C-0017_CRUK_PC_0017_T1	2	175508353	180260442	2	1
ProstateCA_A29C-0017_CRUK_PC_0017_T1	2	180261889	183424959	3	1
ProstateCA_A29C-0017_CRUK_PC_0017_T1	2	183521984	185719122	2	1
ProstateCA_A29C-0017_CRUK_PC_0017_T1	2	186656840	188199871	3	1
ProstateCA_A29C-0017_CRUK_PC_0017_T1	2	189159276	192435677	3	1
ProstateCA_A29C-0017_CRUK_PC_0017_T1	2	192696255	194666388	3	2
ProstateCA_A29C-0017_CRUK_PC_0017_T1	2	194972526	198630667	3	2
ProstateCA_A29C-0017_CRUK_PC_0017_T1	2	199913283	200924558	2	1
ProstateCA_A29C-0017_CRUK_PC_0017_T1	2	201732117	203808532	3	2
ProstateCA_A29C-0017_CRUK_PC_0017_T1	2	203866336	211306295	3	1
ProstateCA_A29C-0017_CRUK_PC_0017_T1	2	211310345	212438865	2	1
ProstateCA_A29C-0017_CRUK_PC_0017_T1	2	212456341	214307559	3	2
ProstateCA_A29C-0017_CRUK_PC_0017_T1	2	214311983	215624009	2	1
ProstateCA_A29C-0017_CRUK_PC_0017_T1	2	215635794	219474865	3	2
ProstateCA_A29C-0017_CRUK_PC_0017_T1	2	219533581	227893017	3	2
ProstateCA_A29C-0017_CRUK_PC_0017_T1	2	227893561	228981404	2	1
ProstateCA_A29C-0017_CRUK_PC_0017_T1	2	230296944	231638629	3	1
ProstateCA_A29C-0017_CRUK_PC_0017_T1	2	232630459	235123770	2	1
ProstateCA_A29C-0017_CRUK_PC_0017_T1	2	235126491	242985493	3	2
ProstateCA_A29C-0017_CRUK_PC_0017_T1	3	155459	4675336	5	4
ProstateCA_A29C-0017_CRUK_PC_0017_T1	3	5256782	16658897	5	4
ProstateCA_A29C-0017_CRUK_PC_0017_T1	3	17068563	30363284	6	4
ProstateCA_A29C-0017_CRUK_PC_0017_T1	3	30366939	31621146	0	4
ProstateCA_A29C-0017_CRUK_PC_0017_T1	3	31667308	33657998	5	4
ProstateCA_A29C-0017_CRUK_PC_0017_T1	3	33902658	41302942	5	4
ProstateCA_A29C-0017_CRUK_PC_0017_T1	3	41420792	71074194	4	4
ProstateCA_A29C-0017_CRUK_PC_0017_T1	3	71130287	72362043	6	4
ProstateCA_A29C-0017_CRUK_PC_0017_T1	3	72383413	73888206	0	4
ProstateCA_A29C-0017_CRUK_PC_0017_T1	3	73916738	81291384	4	4
ProstateCA_A29C-0017_CRUK_PC_0017_T1	3	81298647	87601254	4	4
ProstateCA_A29C-0017_CRUK_PC_0017_T1	3	87903248	90504645	5	4
ProstateCA_A29C-0017_CRUK_PC_0017_T1	3	93517667	96473272	6	5
ProstateCA_A29C-0017_CRUK_PC_0017_T1	3	97426998	106855076	7	5
ProstateCA_A29C-0017_CRUK_PC_0017_T1	3	106856261	108555812	6	5
ProstateCA_A29C-0017_CRUK_PC_0017_T1	3	108665263	113978227	6	5
ProstateCA_A29C-0017_CRUK_PC_0017_T1	3	114283252	123310355	7	5
ProstateCA_A29C-0017_CRUK_PC_0017_T1	3	123381069	127186461	7	5
ProstateCA_A29C-0017_CRUK_PC_0017_T1	3	127394280	130478554	7	5
ProstateCA_A29C-0017_CRUK_PC_0017_T1	3	130673258	155067454	7	5
ProstateCA_A29C-0017_CRUK_PC_0017_T1	3	155710620	170649012	7	5
ProstateCA_A29C-0017_CRUK_PC_0017_T1	3	170649749	173927619	6	5
ProstateCA_A29C-0017_CRUK_PC_0017_T1	3	174134162	179097134	6	5
ProstateCA_A29C-0017_CRUK_PC_0017_T1	3	179596010	193282003	6	1
ProstateCA_A29C-0017_CRUK_PC_0017_T1	3	193889110	197842358	6	1
ProstateCA_A29C-0017_CRUK_PC_0017_T1	4	81303	39361977	2	1
ProstateCA_A29C-0017_CRUK_PC_0017_T1	4	39418192	49091044	2	1
ProstateCA_A29C-0017_CRUK_PC_0017_T1	4	52699760	55287919	2	1
ProstateCA_A29C-0017_CRUK_PC_0017_T1	4	55290757	62969310	2	1
ProstateCA_A29C-0017_CRUK_PC_0017_T1	4	62989154	89940489	2	1
ProstateCA_A29C-0017_CRUK_PC_0017_T1	4	89944272	92062714	2	1
ProstateCA_A29C-0017_CRUK_PC_0017_T1	4	92066599	112823643	2	1
ProstateCA_A29C-0017_CRUK_PC_0017_T1	4	112828573	123422563	2	1
ProstateCA_A29C-0017_CRUK_PC_0017_T1	4	123438014	130432768	2	1
ProstateCA_A29C-0017_CRUK_PC_0017_T1	4	130433203	133040536	2	2
ProstateCA_A29C-0017_CRUK_PC_0017_T1	4	133416881	138922215	2	1
ProstateCA_A29C-0017_CRUK_PC_0017_T1	4	138948344	184171187	2	1
ProstateCA_A29C-0017_CRUK_PC_0017_T1	4	184188404	190790246	2	1
ProstateCA_A29C-0017_CRUK_PC_0017_T1	5	850203	10574343	4	1
ProstateCA_A29C-0017_CRUK_PC_0017_T1	5	10610771	13733546	2	2
ProstateCA_A29C-0017_CRUK_PC_0017_T1	5	13852639	32172720	1	2
ProstateCA_A29C-0017_CRUK_PC_0017_T1	5	32589282	43420811	2	2
ProstateCA_A29C-0017_CRUK_PC_0017_T1	5	43504748	46084042	2	2
ProstateCA_A29C-0017_CRUK_PC_0017_T1	5	49453013	51977868	1	5
ProstateCA_A29C-0017_CRUK_PC_0017_T1	5	52389369	54422470	1	5
ProstateCA_A29C-0017_CRUK_PC_0017_T1	5	54526980	58458792	1	1
ProstateCA_A29C-0017_CRUK_PC_0017_T1	5	58546650	73678186	1	1
ProstateCA_A29C-0017_CRUK_PC_0017_T1	5	77970591	79520202	2	5
ProstateCA_A29C-0017_CRUK_PC_0017_T1	5	79520654	89038825	2	1
ProstateCA_A29C-0017_CRUK_PC_0017_T1	5	89040596	104985928	2	1
ProstateCA_A29C-0017_CRUK_PC_0017_T1	5	105017111	111497358	2	1
ProstateCA_A29C-0017_CRUK_PC_0017_T1	5	111818951	118339353	2	1
ProstateCA_A29C-0017_CRUK_PC_0017_T1	5	119082443	164047711	2	1
ProstateCA_A29C-0017_CRUK_PC_0017_T1	5	164065767	165227351	2	5
ProstateCA_A29C-0017_CRUK_PC_0017_T1	5	165881762	172198500	2	1
ProstateCA_A29C-0017_CRUK_PC_0017_T1	5	172222457	174253696	2	5
ProstateCA_A29C-0017_CRUK_PC_0017_T1	5	174268171	176491210	3	5
ProstateCA_A29C-0017_CRUK_PC_0017_T1	5	177114332	179717643	3	5
ProstateCA_A29C-0017_CRUK_PC_0017_T1	6	382537	26667659	2	0
ProstateCA_A29C-0017_CRUK_PC_0017_T1	6	26970124	32927029	2	4
ProstateCA_A29C-0017_CRUK_PC_0017_T1	6	33221955	36183117	2	4
ProstateCA_A29C-0017_CRUK_PC_0017_T1	6	37011548	39370149	2	4
ProstateCA_A29C-0017_CRUK_PC_0017_T1	6	39558481	44783457	2	4
ProstateCA_A29C-0017_CRUK_PC_0017_T1	6	44785502	47699730	2	3
ProstateCA_A29C-0017_CRUK_PC_0017_T1	6	47896738	51160125	2	3
ProstateCA_A29C-0017_CRUK_PC_0017_T1	6	51163941	52631802	2	2
ProstateCA_A29C-0017_CRUK_PC_0017_T1	6	53511696	58773345	2	2
ProstateCA_A29C-0017_CRUK_PC_0017_T1	6	61882658	89473815	2	2
ProstateCA_A29C-0017_CRUK_PC_0017_T1	6	89498971	115785196	2	2
ProstateCA_A29C-0017_CRUK_PC_0017_T1	6	115827932	160102710	2	2
ProstateCA_A29C-0017_CRUK_PC_0017_T1	6	160104838	170898626	0	2
ProstateCA_A29C-0017_CRUK_PC_0017_T1	7	82180	16808911	5	3
ProstateCA_A29C-0017_CRUK_PC_0017_T1	7	17279393	20347570	5	3
ProstateCA_A29C-0017_CRUK_PC_0017_T1	7	20613366	25202601	5	3
ProstateCA_A29C-0017_CRUK_PC_0017_T1	7	25203513	26207755	6	3
ProstateCA_A29C-0017_CRUK_PC_0017_T1	7	27287536	35691934	5	3
ProstateCA_A29C-0017_CRUK_PC_0017_T1	7	35697108	57999512	1	4
ProstateCA_A29C-0017_CRUK_PC_0017_T1	7	62038204	80289921	2	4
ProstateCA_A29C-0017_CRUK_PC_0017_T1	7	80990185	111166621	2	4
ProstateCA_A29C-0017_CRUK_PC_0017_T1	7	111436905	145357051	2	4
ProstateCA_A29C-0017_CRUK_PC_0017_T1	7	145363652	159122682	1	3
ProstateCA_A29C-0017_CRUK_PC_0017_T1	8	805699	15546515	2	0
ProstateCA_A29C-0017_CRUK_PC_0017_T1	8	15546935	18214105	3	0
ProstateCA_A29C-0017_CRUK_PC_0017_T1	8	18214151	22184937	2	0
ProstateCA_A29C-0017_CRUK_PC_0017_T1	8	22200148	23534517	2	0
ProstateCA_A29C-0017_CRUK_PC_0017_T1	8	23879104	26726641	2	0
ProstateCA_A29C-0017_CRUK_PC_0017_T1	8	28226019	40435575	2	0
ProstateCA_A29C-0017_CRUK_PC_0017_T1	8	40461305	41966476	4	0
ProstateCA_A29C-0017_CRUK_PC_0017_T1	8	46887903	48091869	4	8
ProstateCA_A29C-0017_CRUK_PC_0017_T1	8	48219532	50274655	2	8
ProstateCA_A29C-0017_CRUK_PC_0017_T1	8	50884830	52094839	3	10
ProstateCA_A29C-0017_CRUK_PC_0017_T1	8	52792056	55704910	3	8
ProstateCA_A29C-0017_CRUK_PC_0017_T1	8	55705912	57125270	3	8
ProstateCA_A29C-0017_CRUK_PC_0017_T1	8	57517146	61043814	3	8
ProstateCA_A29C-0017_CRUK_PC_0017_T1	8	61644043	65636139	2	7
ProstateCA_A29C-0017_CRUK_PC_0017_T1	8	66050403	73388504	2	7
ProstateCA_A29C-0017_CRUK_PC_0017_T1	8	74762582	75980272	4	8
ProstateCA_A29C-0017_CRUK_PC_0017_T1	8	75982722	80981964	4	8
ProstateCA_A29C-0017_CRUK_PC_0017_T1	8	80994801	82771008	3	7
ProstateCA_A29C-0017_CRUK_PC_0017_T1	8	82772037	94689316	2	7
ProstateCA_A29C-0017_CRUK_PC_0017_T1	8	95803750	98720779	2	7
ProstateCA_A29C-0017_CRUK_PC_0017_T1	8	98787739	101836548	2	7
ProstateCA_A29C-0017_CRUK_PC_0017_T1	8	105182157	107816174	2	7
ProstateCA_A29C-0017_CRUK_PC_0017_T1	8	110045173	117833248	2	7
ProstateCA_A29C-0017_CRUK_PC_0017_T1	8	118015863	119977077	2	7
ProstateCA_A29C-0017_CRUK_PC_0017_T1	8	120353062	121621426	2	7
ProstateCA_A29C-0017_CRUK_PC_0017_T1	8	121623848	122792083	2	8
ProstateCA_A29C-0017_CRUK_PC_0017_T1	8	122793627	128054612	2	6
ProstateCA_A29C-0017_CRUK_PC_0017_T1	8	128070669	130338309	3	9
ProstateCA_A29C-0017_CRUK_PC_0017_T1	8	131650552	133849234	3	7
ProstateCA_A29C-0017_CRUK_PC_0017_T1	8	133900495	139355606	2	6
ProstateCA_A29C-0017_CRUK_PC_0017_T1	8	139780908	141090724	2	6
ProstateCA_A29C-0017_CRUK_PC_0017_T1	8	141093107	142859722	2	6
ProstateCA_A29C-0017_CRUK_PC_0017_T1	8	142863768	144756386	2	4
ProstateCA_A29C-0017_CRUK_PC_0017_T1	9	273729	38686347	3	2
ProstateCA_A29C-0017_CRUK_PC_0017_T1	9	71033501	78298423	2	2
ProstateCA_A29C-0017_CRUK_PC_0017_T1	9	78307082	80250127	4	2
ProstateCA_A29C-0017_CRUK_PC_0017_T1	9	80283930	91739653	2	2
ProstateCA_A29C-0017_CRUK_PC_0017_T1	9	91775881	141006014	2	2
ProstateCA_A29C-0017_CRUK_PC_0017_T1	10	95074	17546674	2	1
ProstateCA_A29C-0017_CRUK_PC_0017_T1	10	17547281	37999691	2	1
ProstateCA_A29C-0017_CRUK_PC_0017_T1	10	38000187	39122110	2	1
ProstateCA_A29C-0017_CRUK_PC_0017_T1	10	42397373	82565944	2	1
ProstateCA_A29C-0017_CRUK_PC_0017_T1	10	82762096	86852648	2	1
ProstateCA_A29C-0017_CRUK_PC_0017_T1	10	88026801	89488678	2	1
ProstateCA_A29C-0017_CRUK_PC_0017_T1	10	90416756	97505278	2	1
ProstateCA_A29C-0017_CRUK_PC_0017_T1	10	97506042	101804804	2	0
ProstateCA_A29C-0017_CRUK_PC_0017_T1	10	101861622	123522148	2	1
ProstateCA_A29C-0017_CRUK_PC_0017_T1	10	124099647	135235890	2	1
ProstateCA_A29C-0017_CRUK_PC_0017_T1	11	216324	10288751	3	3
ProstateCA_A29C-0017_CRUK_PC_0017_T1	11	12157859	23783338	3	3
ProstateCA_A29C-0017_CRUK_PC_0017_T1	11	25784856	27249330	3	3
ProstateCA_A29C-0017_CRUK_PC_0017_T1	11	32980075	36126838	2	2
ProstateCA_A29C-0017_CRUK_PC_0017_T1	11	36153721	37205081	2	2
ProstateCA_A29C-0017_CRUK_PC_0017_T1	11	37338452	41391584	2	2
ProstateCA_A29C-0017_CRUK_PC_0017_T1	11	41693725	45181682	2	2
ProstateCA_A29C-0017_CRUK_PC_0017_T1	11	45192009	46818631	2	3
ProstateCA_A29C-0017_CRUK_PC_0017_T1	11	47290984	50355014	2	3
ProstateCA_A29C-0017_CRUK_PC_0017_T1	11	56961976	61633947	2	3
ProstateCA_A29C-0017_CRUK_PC_0017_T1	11	62309586	68769071	2	3
ProstateCA_A29C-0017_CRUK_PC_0017_T1	11	68798102	71231543	2	3
ProstateCA_A29C-0017_CRUK_PC_0017_T1	11	71241697	76308524	0	3
ProstateCA_A29C-0017_CRUK_PC_0017_T1	11	76352366	78539115	2	3
ProstateCA_A29C-0017_CRUK_PC_0017_T1	11	78548134	81460746	2	3
ProstateCA_A29C-0017_CRUK_PC_0017_T1	11	81474088	84162302	2	3
ProstateCA_A29C-0017_CRUK_PC_0017_T1	11	86174129	87784421	2	3
ProstateCA_A29C-0017_CRUK_PC_0017_T1	11	88256603	97759376	2	3
ProstateCA_A29C-0017_CRUK_PC_0017_T1	11	97762383	128188910	2	3
ProstateCA_A29C-0017_CRUK_PC_0017_T1	11	129280473	134945709	2	3
ProstateCA_A29C-0017_CRUK_PC_0017_T1	12	189093	19716942	4	0
ProstateCA_A29C-0017_CRUK_PC_0017_T1	12	19732201	30193430	4	0
ProstateCA_A29C-0017_CRUK_PC_0017_T1	12	33302639	34827687	4	3
ProstateCA_A29C-0017_CRUK_PC_0017_T1	12	38204771	47782209	4	2
ProstateCA_A29C-0017_CRUK_PC_0017_T1	12	47855267	50887127	2	2
ProstateCA_A29C-0017_CRUK_PC_0017_T1	12	51500886	64956067	2	2
ProstateCA_A29C-0017_CRUK_PC_0017_T1	12	65141588	79578860	1	2
ProstateCA_A29C-0017_CRUK_PC_0017_T1	12	80073698	104455340	1	2
ProstateCA_A29C-0017_CRUK_PC_0017_T1	12	105012474	133839356	2	2
ProstateCA_A29C-0017_CRUK_PC_0017_T1	13	19500453	34620493	2	2
ProstateCA_A29C-0017_CRUK_PC_0017_T1	13	34627269	109964671	2	1
ProstateCA_A29C-0017_CRUK_PC_0017_T1	13	111220462	113168985	2	4
ProstateCA_A29C-0017_CRUK_PC_0017_T1	14	20425051	22396722	4	2
ProstateCA_A29C-0017_CRUK_PC_0017_T1	14	23056601	37696979	4	2
ProstateCA_A29C-0017_CRUK_PC_0017_T1	14	37971612	65762476	4	2
ProstateCA_A29C-0017_CRUK_PC_0017_T1	14	65764069	107283598	4	2
ProstateCA_A29C-0017_CRUK_PC_0017_T1	15	20001774	64441548	3	1
ProstateCA_A29C-0017_CRUK_PC_0017_T1	15	65160901	102431166	3	1
ProstateCA_A29C-0017_CRUK_PC_0017_T1	16	84170	20602795	3	3
ProstateCA_A29C-0017_CRUK_PC_0017_T1	16	20984384	34548913	3	3
ProstateCA_A29C-0017_CRUK_PC_0017_T1	16	46478476	72781038	2	2
ProstateCA_A29C-0017_CRUK_PC_0017_T1	16	73004035	75415096	2	2
ProstateCA_A29C-0017_CRUK_PC_0017_T1	16	75420609	89998794	2	2
ProstateCA_A29C-0017_CRUK_PC_0017_T1	17	19894	7579801	4	0
ProstateCA_A29C-0017_CRUK_PC_0017_T1	17	7584266	17607317	2	0
ProstateCA_A29C-0017_CRUK_PC_0017_T1	17	17928925	20622378	2	3
ProstateCA_A29C-0017_CRUK_PC_0017_T1	17	20736848	22243760	2	3
ProstateCA_A29C-0017_CRUK_PC_0017_T1	17	25270079	34309051	2	3
ProstateCA_A29C-0017_CRUK_PC_0017_T1	17	34311387	35512253	2	2
ProstateCA_A29C-0017_CRUK_PC_0017_T1	17	35589436	41230044	1	2
ProstateCA_A29C-0017_CRUK_PC_0017_T1	17	41460439	44029416	3	2
ProstateCA_A29C-0017_CRUK_PC_0017_T1	17	45324590	57833476	3	2
ProstateCA_A29C-0017_CRUK_PC_0017_T1	17	57838831	63975029	3	2
ProstateCA_A29C-0017_CRUK_PC_0017_T1	17	63975741	65982943	4	2
ProstateCA_A29C-0017_CRUK_PC_0017_T1	17	66211047	67658293	3	2
ProstateCA_A29C-0017_CRUK_PC_0017_T1	17	67785428	79998898	3	2
ProstateCA_A29C-0017_CRUK_PC_0017_T1	18	132649	13494200	2	1
ProstateCA_A29C-0017_CRUK_PC_0017_T1	18	19001780	29194026	3	1
ProstateCA_A29C-0017_CRUK_PC_0017_T1	18	29685246	67992279	3	1
ProstateCA_A29C-0017_CRUK_PC_0017_T1	18	68001571	78017073	3	2
ProstateCA_A29C-0017_CRUK_PC_0017_T1	19	290090	5595354	4	1
ProstateCA_A29C-0017_CRUK_PC_0017_T1	19	6125028	22298322	4	1
ProstateCA_A29C-0017_CRUK_PC_0017_T1	19	23239350	24603386	4	2
ProstateCA_A29C-0017_CRUK_PC_0017_T1	19	28706961	36224705	4	1
ProstateCA_A29C-0017_CRUK_PC_0017_T1	19	36225999	43145624	4	1
ProstateCA_A29C-0017_CRUK_PC_0017_T1	19	43226114	46418886	4	1
ProstateCA_A29C-0017_CRUK_PC_0017_T1	19	46419773	51646509	4	1
ProstateCA_A29C-0017_CRUK_PC_0017_T1	19	51683579	54004939	4	1
ProstateCA_A29C-0017_CRUK_PC_0017_T1	19	54006497	59097308	4	1
ProstateCA_A29C-0017_CRUK_PC_0017_T1	20	20043815	25599560	2	2
ProstateCA_A29C-0017_CRUK_PC_0017_T1	20	29509957	30649002	3	0
ProstateCA_A29C-0017_CRUK_PC_0017_T1	20	30717667	33296988	2	0
ProstateCA_A29C-0017_CRUK_PC_0017_T1	20	34018152	35068018	4	3
ProstateCA_A29C-0017_CRUK_PC_0017_T1	20	35097119	36102400	2	0
ProstateCA_A29C-0017_CRUK_PC_0017_T1	20	37068857	38904203	3	0
ProstateCA_A29C-0017_CRUK_PC_0017_T1	20	38909572	40530674	2	0
ProstateCA_A29C-0017_CRUK_PC_0017_T1	20	40553789	48934778	5	0
ProstateCA_A29C-0017_CRUK_PC_0017_T1	20	49850156	51111118	5	0
ProstateCA_A29C-0017_CRUK_PC_0017_T1	20	52971883	55974779	5	2
ProstateCA_A29C-0017_CRUK_PC_0017_T1	20	57050146	59642091	5	2
ProstateCA_A29C-0017_CRUK_PC_0017_T1	20	59643115	62880369	6	2
ProstateCA_A29C-0017_CRUK_PC_0017_T1	21	15273828	39834330	5	2
ProstateCA_A29C-0017_CRUK_PC_0017_T1	21	39920484	42869063	0	2
ProstateCA_A29C-0017_CRUK_PC_0017_T1	21	42871273	48023311	5	2
ProstateCA_A29C-0017_CRUK_PC_0017_T1	22	16631738	29664906	3	0
ProstateCA_A29C-0017_CRUK_PC_0017_T1	22	30002484	38499978	3	1
ProstateCA_A29C-0017_CRUK_PC_0017_T1	22	38838730	49997158	3	1
RSuperficialInguinalLNMetA1_A29A-0017_CRUK_PC_0017_M1	1	773106	111323464	4	0
RSuperficialInguinalLNMetA1_A29A-0017_CRUK_PC_0017_M1	1	111326618	117343481	4	0
RSuperficialInguinalLNMetA1_A29A-0017_CRUK_PC_0017_M1	1	117476466	121350213	4	0
RSuperficialInguinalLNMetA1_A29A-0017_CRUK_PC_0017_M1	1	145399296	153788211	5	0
RSuperficialInguinalLNMetA1_A29A-0017_CRUK_PC_0017_M1	1	153792958	157101925	5	0
RSuperficialInguinalLNMetA1_A29A-0017_CRUK_PC_0017_M1	1	157130436	199301087	5	0
RSuperficialInguinalLNMetA1_A29A-0017_CRUK_PC_0017_M1	1	199304082	241819695	5	0
RSuperficialInguinalLNMetA1_A29A-0017_CRUK_PC_0017_M1	1	242424607	249229734	5	0
RSuperficialInguinalLNMetA1_A29A-0017_CRUK_PC_0017_M1	2	19803	19021776	5	1
RSuperficialInguinalLNMetA1_A29A-0017_CRUK_PC_0017_M1	2	19765391	28535061	4	1
RSuperficialInguinalLNMetA1_A29A-0017_CRUK_PC_0017_M1	2	28617932	30265966	4	1
RSuperficialInguinalLNMetA1_A29A-0017_CRUK_PC_0017_M1	2	30288509	75085163	5	0
RSuperficialInguinalLNMetA1_A29A-0017_CRUK_PC_0017_M1	2	75089454	92266269	5	1
RSuperficialInguinalLNMetA1_A29A-0017_CRUK_PC_0017_M1	2	95439758	103619483	4	1
RSuperficialInguinalLNMetA1_A29A-0017_CRUK_PC_0017_M1	2	103641828	106633402	5	2
RSuperficialInguinalLNMetA1_A29A-0017_CRUK_PC_0017_M1	2	106634447	108063018	10	2
RSuperficialInguinalLNMetA1_A29A-0017_CRUK_PC_0017_M1	2	108066662	121686882	5	2
RSuperficialInguinalLNMetA1_A29A-0017_CRUK_PC_0017_M1	2	121754663	125953558	5	1
RSuperficialInguinalLNMetA1_A29A-0017_CRUK_PC_0017_M1	2	125954272	127970385	2	1
RSuperficialInguinalLNMetA1_A29A-0017_CRUK_PC_0017_M1	2	129542173	130696327	2	1
RSuperficialInguinalLNMetA1_A29A-0017_CRUK_PC_0017_M1	2	130740562	136151774	2	1
RSuperficialInguinalLNMetA1_A29A-0017_CRUK_PC_0017_M1	2	136152802	138979176	2	1
RSuperficialInguinalLNMetA1_A29A-0017_CRUK_PC_0017_M1	2	139312853	141606465	2	1
RSuperficialInguinalLNMetA1_A29A-0017_CRUK_PC_0017_M1	2	141641929	143689935	2	1
RSuperficialInguinalLNMetA1_A29A-0017_CRUK_PC_0017_M1	2	144988733	147742514	2	1
RSuperficialInguinalLNMetA1_A29A-0017_CRUK_PC_0017_M1	2	148553487	149611552	2	1
RSuperficialInguinalLNMetA1_A29A-0017_CRUK_PC_0017_M1	2	150514736	152566087	2	1
RSuperficialInguinalLNMetA1_A29A-0017_CRUK_PC_0017_M1	2	152666816	155164091	2	1
RSuperficialInguinalLNMetA1_A29A-0017_CRUK_PC_0017_M1	2	155170070	158098935	2	1
RSuperficialInguinalLNMetA1_A29A-0017_CRUK_PC_0017_M1	2	158889058	159976285	2	1
RSuperficialInguinalLNMetA1_A29A-0017_CRUK_PC_0017_M1	2	159979212	161280776	2	1
RSuperficialInguinalLNMetA1_A29A-0017_CRUK_PC_0017_M1	2	161294583	166056000	2	1
RSuperficialInguinalLNMetA1_A29A-0017_CRUK_PC_0017_M1	2	166945843	169239686	2	1
RSuperficialInguinalLNMetA1_A29A-0017_CRUK_PC_0017_M1	2	170275857	172431121	2	1
RSuperficialInguinalLNMetA1_A29A-0017_CRUK_PC_0017_M1	2	172449928	174374002	2	1
RSuperficialInguinalLNMetA1_A29A-0017_CRUK_PC_0017_M1	2	174454010	175495461	2	1
RSuperficialInguinalLNMetA1_A29A-0017_CRUK_PC_0017_M1	2	175508353	180260442	2	1
RSuperficialInguinalLNMetA1_A29A-0017_CRUK_PC_0017_M1	2	180261889	183424959	2	1
RSuperficialInguinalLNMetA1_A29A-0017_CRUK_PC_0017_M1	2	183521984	185719122	2	1
RSuperficialInguinalLNMetA1_A29A-0017_CRUK_PC_0017_M1	2	186656840	188199871	2	1
RSuperficialInguinalLNMetA1_A29A-0017_CRUK_PC_0017_M1	2	189159276	192435677	3	2
RSuperficialInguinalLNMetA1_A29A-0017_CRUK_PC_0017_M1	2	192696255	194666388	3	2
RSuperficialInguinalLNMetA1_A29A-0017_CRUK_PC_0017_M1	2	194972526	198630667	3	2
RSuperficialInguinalLNMetA1_A29A-0017_CRUK_PC_0017_M1	2	199913283	200924558	3	2
RSuperficialInguinalLNMetA1_A29A-0017_CRUK_PC_0017_M1	2	201732117	203808532	3	2
RSuperficialInguinalLNMetA1_A29A-0017_CRUK_PC_0017_M1	2	203866336	211306295	3	2
RSuperficialInguinalLNMetA1_A29A-0017_CRUK_PC_0017_M1	2	211310345	212438865	3	2
RSuperficialInguinalLNMetA1_A29A-0017_CRUK_PC_0017_M1	2	212456341	214307559	3	2
RSuperficialInguinalLNMetA1_A29A-0017_CRUK_PC_0017_M1	2	214311983	215624009	3	2
RSuperficialInguinalLNMetA1_A29A-0017_CRUK_PC_0017_M1	2	215635794	219474865	3	2
RSuperficialInguinalLNMetA1_A29A-0017_CRUK_PC_0017_M1	2	219533581	227893017	3	2
RSuperficialInguinalLNMetA1_A29A-0017_CRUK_PC_0017_M1	2	227893561	228981404	3	2
RSuperficialInguinalLNMetA1_A29A-0017_CRUK_PC_0017_M1	2	230296944	231638629	3	2
RSuperficialInguinalLNMetA1_A29A-0017_CRUK_PC_0017_M1	2	232630459	235123770	3	2
RSuperficialInguinalLNMetA1_A29A-0017_CRUK_PC_0017_M1	2	235126491	242985493	3	2
RSuperficialInguinalLNMetA1_A29A-0017_CRUK_PC_0017_M1	3	155459	4675336	7	3
RSuperficialInguinalLNMetA1_A29A-0017_CRUK_PC_0017_M1	3	5256782	16658897	7	3
RSuperficialInguinalLNMetA1_A29A-0017_CRUK_PC_0017_M1	3	17068563	30363284	7	3
RSuperficialInguinalLNMetA1_A29A-0017_CRUK_PC_0017_M1	3	30366939	31621146	0	3
RSuperficialInguinalLNMetA1_A29A-0017_CRUK_PC_0017_M1	3	31667308	33657998	7	3
RSuperficialInguinalLNMetA1_A29A-0017_CRUK_PC_0017_M1	3	33902658	41302942	7	3
RSuperficialInguinalLNMetA1_A29A-0017_CRUK_PC_0017_M1	3	41420792	71074194	5	3
RSuperficialInguinalLNMetA1_A29A-0017_CRUK_PC_0017_M1	3	71130287	72362043	7	3
RSuperficialInguinalLNMetA1_A29A-0017_CRUK_PC_0017_M1	3	72383413	73888206	0	3
RSuperficialInguinalLNMetA1_A29A-0017_CRUK_PC_0017_M1	3	73916738	81291384	5	3
RSuperficialInguinalLNMetA1_A29A-0017_CRUK_PC_0017_M1	3	81298647	87601254	5	3
RSuperficialInguinalLNMetA1_A29A-0017_CRUK_PC_0017_M1	3	87903248	90504645	5	4
RSuperficialInguinalLNMetA1_A29A-0017_CRUK_PC_0017_M1	3	93517667	96473272	7	4
RSuperficialInguinalLNMetA1_A29A-0017_CRUK_PC_0017_M1	3	97426998	106855076	7	3
RSuperficialInguinalLNMetA1_A29A-0017_CRUK_PC_0017_M1	3	106856261	108555812	7	3
RSuperficialInguinalLNMetA1_A29A-0017_CRUK_PC_0017_M1	3	108665263	113978227	7	3
RSuperficialInguinalLNMetA1_A29A-0017_CRUK_PC_0017_M1	3	114283252	123310355	7	3
RSuperficialInguinalLNMetA1_A29A-0017_CRUK_PC_0017_M1	3	123381069	127186461	7	3
RSuperficialInguinalLNMetA1_A29A-0017_CRUK_PC_0017_M1	3	127394280	130478554	7	3
RSuperficialInguinalLNMetA1_A29A-0017_CRUK_PC_0017_M1	3	130673258	155067454	7	3
RSuperficialInguinalLNMetA1_A29A-0017_CRUK_PC_0017_M1	3	155710620	170649012	6	3
RSuperficialInguinalLNMetA1_A29A-0017_CRUK_PC_0017_M1	3	170649749	173927619	6	3
RSuperficialInguinalLNMetA1_A29A-0017_CRUK_PC_0017_M1	3	174134162	179097134	6	3
RSuperficialInguinalLNMetA1_A29A-0017_CRUK_PC_0017_M1	3	179596010	193282003	7	2
RSuperficialInguinalLNMetA1_A29A-0017_CRUK_PC_0017_M1	3	193889110	197842358	7	2
RSuperficialInguinalLNMetA1_A29A-0017_CRUK_PC_0017_M1	4	81303	39361977	2	1
RSuperficialInguinalLNMetA1_A29A-0017_CRUK_PC_0017_M1	4	39418192	49091044	2	1
RSuperficialInguinalLNMetA1_A29A-0017_CRUK_PC_0017_M1	4	52699760	55287919	2	1
RSuperficialInguinalLNMetA1_A29A-0017_CRUK_PC_0017_M1	4	55290757	62969310	3	1
RSuperficialInguinalLNMetA1_A29A-0017_CRUK_PC_0017_M1	4	62989154	89940489	2	1
RSuperficialInguinalLNMetA1_A29A-0017_CRUK_PC_0017_M1	4	89944272	92062714	2	1
RSuperficialInguinalLNMetA1_A29A-0017_CRUK_PC_0017_M1	4	92066599	112823643	2	1
RSuperficialInguinalLNMetA1_A29A-0017_CRUK_PC_0017_M1	4	112828573	123422563	2	1
RSuperficialInguinalLNMetA1_A29A-0017_CRUK_PC_0017_M1	4	123438014	130432768	2	1
RSuperficialInguinalLNMetA1_A29A-0017_CRUK_PC_0017_M1	4	130433203	133040536	2	1
RSuperficialInguinalLNMetA1_A29A-0017_CRUK_PC_0017_M1	4	133416881	138922215	2	1
RSuperficialInguinalLNMetA1_A29A-0017_CRUK_PC_0017_M1	4	138948344	184171187	2	2
RSuperficialInguinalLNMetA1_A29A-0017_CRUK_PC_0017_M1	4	184188404	190790246	2	2
RSuperficialInguinalLNMetA1_A29A-0017_CRUK_PC_0017_M1	5	850203	10574343	4	3
RSuperficialInguinalLNMetA1_A29A-0017_CRUK_PC_0017_M1	5	10610771	13733546	1	3
RSuperficialInguinalLNMetA1_A29A-0017_CRUK_PC_0017_M1	5	13852639	32172720	1	3
RSuperficialInguinalLNMetA1_A29A-0017_CRUK_PC_0017_M1	5	32589282	43420811	1	3
RSuperficialInguinalLNMetA1_A29A-0017_CRUK_PC_0017_M1	5	43504748	46084042	1	3
RSuperficialInguinalLNMetA1_A29A-0017_CRUK_PC_0017_M1	5	49453013	51977868	1	4
RSuperficialInguinalLNMetA1_A29A-0017_CRUK_PC_0017_M1	5	52389369	54422470	1	4
RSuperficialInguinalLNMetA1_A29A-0017_CRUK_PC_0017_M1	5	54526980	58458792	1	2
RSuperficialInguinalLNMetA1_A29A-0017_CRUK_PC_0017_M1	5	58546650	73678186	1	2
RSuperficialInguinalLNMetA1_A29A-0017_CRUK_PC_0017_M1	5	77970591	79520202	1	5
RSuperficialInguinalLNMetA1_A29A-0017_CRUK_PC_0017_M1	5	79520654	89038825	1	2
RSuperficialInguinalLNMetA1_A29A-0017_CRUK_PC_0017_M1	5	89040596	104985928	1	2
RSuperficialInguinalLNMetA1_A29A-0017_CRUK_PC_0017_M1	5	105017111	111497358	1	2
RSuperficialInguinalLNMetA1_A29A-0017_CRUK_PC_0017_M1	5	111818951	118339353	1	3
RSuperficialInguinalLNMetA1_A29A-0017_CRUK_PC_0017_M1	5	119082443	164047711	1	2
RSuperficialInguinalLNMetA1_A29A-0017_CRUK_PC_0017_M1	5	164065767	165227351	1	6
RSuperficialInguinalLNMetA1_A29A-0017_CRUK_PC_0017_M1	5	165881762	172198500	1	2
RSuperficialInguinalLNMetA1_A29A-0017_CRUK_PC_0017_M1	5	172222457	174253696	1	5
RSuperficialInguinalLNMetA1_A29A-0017_CRUK_PC_0017_M1	5	174268171	176491210	2	5
RSuperficialInguinalLNMetA1_A29A-0017_CRUK_PC_0017_M1	5	177114332	179717643	2	5
RSuperficialInguinalLNMetA1_A29A-0017_CRUK_PC_0017_M1	6	382537	26667659	1	0
RSuperficialInguinalLNMetA1_A29A-0017_CRUK_PC_0017_M1	6	26970124	32927029	1	6
RSuperficialInguinalLNMetA1_A29A-0017_CRUK_PC_0017_M1	6	33221955	36183117	1	6
RSuperficialInguinalLNMetA1_A29A-0017_CRUK_PC_0017_M1	6	37011548	39370149	1	6
RSuperficialInguinalLNMetA1_A29A-0017_CRUK_PC_0017_M1	6	39558481	44783457	1	6
RSuperficialInguinalLNMetA1_A29A-0017_CRUK_PC_0017_M1	6	44785502	47699730	1	4
RSuperficialInguinalLNMetA1_A29A-0017_CRUK_PC_0017_M1	6	47896738	51160125	1	4
RSuperficialInguinalLNMetA1_A29A-0017_CRUK_PC_0017_M1	6	51163941	52631802	1	2
RSuperficialInguinalLNMetA1_A29A-0017_CRUK_PC_0017_M1	6	53511696	58773345	1	2
RSuperficialInguinalLNMetA1_A29A-0017_CRUK_PC_0017_M1	6	61882658	89473815	1	2
RSuperficialInguinalLNMetA1_A29A-0017_CRUK_PC_0017_M1	6	89498971	115785196	2	2
RSuperficialInguinalLNMetA1_A29A-0017_CRUK_PC_0017_M1	6	115827932	160102710	2	2
RSuperficialInguinalLNMetA1_A29A-0017_CRUK_PC_0017_M1	6	160104838	170898626	0	2
RSuperficialInguinalLNMetA1_A29A-0017_CRUK_PC_0017_M1	7	82180	16808911	3	4
RSuperficialInguinalLNMetA1_A29A-0017_CRUK_PC_0017_M1	7	17279393	20347570	3	4
RSuperficialInguinalLNMetA1_A29A-0017_CRUK_PC_0017_M1	7	20613366	25202601	3	4
RSuperficialInguinalLNMetA1_A29A-0017_CRUK_PC_0017_M1	7	25203513	26207755	5	4
RSuperficialInguinalLNMetA1_A29A-0017_CRUK_PC_0017_M1	7	27287536	35691934	3	4
RSuperficialInguinalLNMetA1_A29A-0017_CRUK_PC_0017_M1	7	35697108	57999512	2	4
RSuperficialInguinalLNMetA1_A29A-0017_CRUK_PC_0017_M1	7	62038204	80289921	2	3
RSuperficialInguinalLNMetA1_A29A-0017_CRUK_PC_0017_M1	7	80990185	111166621	2	3
RSuperficialInguinalLNMetA1_A29A-0017_CRUK_PC_0017_M1	7	111436905	145357051	2	3
RSuperficialInguinalLNMetA1_A29A-0017_CRUK_PC_0017_M1	7	145363652	159122682	2	3
RSuperficialInguinalLNMetA1_A29A-0017_CRUK_PC_0017_M1	8	805699	15546515	2	0
RSuperficialInguinalLNMetA1_A29A-0017_CRUK_PC_0017_M1	8	15546935	18214105	2	0
RSuperficialInguinalLNMetA1_A29A-0017_CRUK_PC_0017_M1	8	18214151	22184937	2	0
RSuperficialInguinalLNMetA1_A29A-0017_CRUK_PC_0017_M1	8	22200148	23534517	2	0
RSuperficialInguinalLNMetA1_A29A-0017_CRUK_PC_0017_M1	8	23879104	26726641	2	0
RSuperficialInguinalLNMetA1_A29A-0017_CRUK_PC_0017_M1	8	28226019	40435575	2	0
RSuperficialInguinalLNMetA1_A29A-0017_CRUK_PC_0017_M1	8	40461305	41966476	2	0
RSuperficialInguinalLNMetA1_A29A-0017_CRUK_PC_0017_M1	8	46887903	48091869	4	7
RSuperficialInguinalLNMetA1_A29A-0017_CRUK_PC_0017_M1	8	48219532	50274655	4	7
RSuperficialInguinalLNMetA1_A29A-0017_CRUK_PC_0017_M1	8	50884830	52094839	4	8
RSuperficialInguinalLNMetA1_A29A-0017_CRUK_PC_0017_M1	8	52792056	55704910	3	7
RSuperficialInguinalLNMetA1_A29A-0017_CRUK_PC_0017_M1	8	55705912	57125270	4	8
RSuperficialInguinalLNMetA1_A29A-0017_CRUK_PC_0017_M1	8	57517146	61043814	4	7
RSuperficialInguinalLNMetA1_A29A-0017_CRUK_PC_0017_M1	8	61644043	65636139	4	7
RSuperficialInguinalLNMetA1_A29A-0017_CRUK_PC_0017_M1	8	66050403	73388504	4	7
RSuperficialInguinalLNMetA1_A29A-0017_CRUK_PC_0017_M1	8	74762582	75980272	4	9
RSuperficialInguinalLNMetA1_A29A-0017_CRUK_PC_0017_M1	8	75982722	80981964	4	7
RSuperficialInguinalLNMetA1_A29A-0017_CRUK_PC_0017_M1	8	80994801	82771008	4	7
RSuperficialInguinalLNMetA1_A29A-0017_CRUK_PC_0017_M1	8	82772037	94689316	4	7
RSuperficialInguinalLNMetA1_A29A-0017_CRUK_PC_0017_M1	8	95803750	98720779	4	7
RSuperficialInguinalLNMetA1_A29A-0017_CRUK_PC_0017_M1	8	98787739	101836548	4	7
RSuperficialInguinalLNMetA1_A29A-0017_CRUK_PC_0017_M1	8	105182157	107816174	4	7
RSuperficialInguinalLNMetA1_A29A-0017_CRUK_PC_0017_M1	8	110045173	117833248	4	8
RSuperficialInguinalLNMetA1_A29A-0017_CRUK_PC_0017_M1	8	118015863	119977077	4	8
RSuperficialInguinalLNMetA1_A29A-0017_CRUK_PC_0017_M1	8	120353062	121621426	4	8
RSuperficialInguinalLNMetA1_A29A-0017_CRUK_PC_0017_M1	8	121623848	122792083	4	8
RSuperficialInguinalLNMetA1_A29A-0017_CRUK_PC_0017_M1	8	122793627	128054612	4	8
RSuperficialInguinalLNMetA1_A29A-0017_CRUK_PC_0017_M1	8	128070669	130338309	4	9
RSuperficialInguinalLNMetA1_A29A-0017_CRUK_PC_0017_M1	8	131650552	133849234	4	8
RSuperficialInguinalLNMetA1_A29A-0017_CRUK_PC_0017_M1	8	133900495	139355606	4	8
RSuperficialInguinalLNMetA1_A29A-0017_CRUK_PC_0017_M1	8	139780908	141090724	4	8
RSuperficialInguinalLNMetA1_A29A-0017_CRUK_PC_0017_M1	8	141093107	142859722	4	8
RSuperficialInguinalLNMetA1_A29A-0017_CRUK_PC_0017_M1	8	142863768	144756386	3	5
RSuperficialInguinalLNMetA1_A29A-0017_CRUK_PC_0017_M1	9	273729	38686347	2	2
RSuperficialInguinalLNMetA1_A29A-0017_CRUK_PC_0017_M1	9	71033501	78298423	2	2
RSuperficialInguinalLNMetA1_A29A-0017_CRUK_PC_0017_M1	9	78307082	80250127	3	2
RSuperficialInguinalLNMetA1_A29A-0017_CRUK_PC_0017_M1	9	80283930	91739653	2	2
RSuperficialInguinalLNMetA1_A29A-0017_CRUK_PC_0017_M1	9	91775881	141006014	2	2
RSuperficialInguinalLNMetA1_A29A-0017_CRUK_PC_0017_M1	10	95074	17546674	2	1
RSuperficialInguinalLNMetA1_A29A-0017_CRUK_PC_0017_M1	10	17547281	37999691	2	2
RSuperficialInguinalLNMetA1_A29A-0017_CRUK_PC_0017_M1	10	38000187	39122110	3	2
RSuperficialInguinalLNMetA1_A29A-0017_CRUK_PC_0017_M1	10	42397373	82565944	2	2
RSuperficialInguinalLNMetA1_A29A-0017_CRUK_PC_0017_M1	10	82762096	86852648	2	2
RSuperficialInguinalLNMetA1_A29A-0017_CRUK_PC_0017_M1	10	88026801	89488678	2	2
RSuperficialInguinalLNMetA1_A29A-0017_CRUK_PC_0017_M1	10	90416756	97505278	2	2
RSuperficialInguinalLNMetA1_A29A-0017_CRUK_PC_0017_M1	10	97506042	101804804	1	0
RSuperficialInguinalLNMetA1_A29A-0017_CRUK_PC_0017_M1	10	101861622	123522148	2	2
RSuperficialInguinalLNMetA1_A29A-0017_CRUK_PC_0017_M1	10	124099647	135235890	2	2
RSuperficialInguinalLNMetA1_A29A-0017_CRUK_PC_0017_M1	11	216324	10288751	3	2
RSuperficialInguinalLNMetA1_A29A-0017_CRUK_PC_0017_M1	11	12157859	23783338	3	2
RSuperficialInguinalLNMetA1_A29A-0017_CRUK_PC_0017_M1	11	25784856	27249330	3	6
RSuperficialInguinalLNMetA1_A29A-0017_CRUK_PC_0017_M1	11	32980075	36126838	3	2
RSuperficialInguinalLNMetA1_A29A-0017_CRUK_PC_0017_M1	11	36153721	37205081	3	3
RSuperficialInguinalLNMetA1_A29A-0017_CRUK_PC_0017_M1	11	37338452	41391584	3	2
RSuperficialInguinalLNMetA1_A29A-0017_CRUK_PC_0017_M1	11	41693725	45181682	3	2
RSuperficialInguinalLNMetA1_A29A-0017_CRUK_PC_0017_M1	11	45192009	46818631	3	2
RSuperficialInguinalLNMetA1_A29A-0017_CRUK_PC_0017_M1	11	47290984	50355014	3	3
RSuperficialInguinalLNMetA1_A29A-0017_CRUK_PC_0017_M1	11	56961976	61633947	1	3
RSuperficialInguinalLNMetA1_A29A-0017_CRUK_PC_0017_M1	11	62309586	68769071	1	3
RSuperficialInguinalLNMetA1_A29A-0017_CRUK_PC_0017_M1	11	68798102	71231543	7	2
RSuperficialInguinalLNMetA1_A29A-0017_CRUK_PC_0017_M1	11	71241697	76308524	0	2
RSuperficialInguinalLNMetA1_A29A-0017_CRUK_PC_0017_M1	11	76352366	78539115	7	2
RSuperficialInguinalLNMetA1_A29A-0017_CRUK_PC_0017_M1	11	78548134	81460746	1	2
RSuperficialInguinalLNMetA1_A29A-0017_CRUK_PC_0017_M1	11	81474088	84162302	7	2
RSuperficialInguinalLNMetA1_A29A-0017_CRUK_PC_0017_M1	11	86174129	87784421	6	2
RSuperficialInguinalLNMetA1_A29A-0017_CRUK_PC_0017_M1	11	88256603	97759376	1	2
RSuperficialInguinalLNMetA1_A29A-0017_CRUK_PC_0017_M1	11	97762383	128188910	1	2
RSuperficialInguinalLNMetA1_A29A-0017_CRUK_PC_0017_M1	11	129280473	134945709	1	2
RSuperficialInguinalLNMetA1_A29A-0017_CRUK_PC_0017_M1	12	189093	19716942	4	0
RSuperficialInguinalLNMetA1_A29A-0017_CRUK_PC_0017_M1	12	19732201	30193430	4	0
RSuperficialInguinalLNMetA1_A29A-0017_CRUK_PC_0017_M1	12	33302639	34827687	6	1
RSuperficialInguinalLNMetA1_A29A-0017_CRUK_PC_0017_M1	12	38204771	47782209	5	3
RSuperficialInguinalLNMetA1_A29A-0017_CRUK_PC_0017_M1	12	47855267	50887127	2	3
RSuperficialInguinalLNMetA1_A29A-0017_CRUK_PC_0017_M1	12	51500886	64956067	2	3
RSuperficialInguinalLNMetA1_A29A-0017_CRUK_PC_0017_M1	12	65141588	79578860	2	3
RSuperficialInguinalLNMetA1_A29A-0017_CRUK_PC_0017_M1	12	80073698	104455340	2	3
RSuperficialInguinalLNMetA1_A29A-0017_CRUK_PC_0017_M1	12	105012474	133839356	2	3
RSuperficialInguinalLNMetA1_A29A-0017_CRUK_PC_0017_M1	13	19500453	34620493	2	2
RSuperficialInguinalLNMetA1_A29A-0017_CRUK_PC_0017_M1	13	34627269	109964671	2	1
RSuperficialInguinalLNMetA1_A29A-0017_CRUK_PC_0017_M1	13	111220462	113168985	2	3
RSuperficialInguinalLNMetA1_A29A-0017_CRUK_PC_0017_M1	14	20425051	22396722	4	2
RSuperficialInguinalLNMetA1_A29A-0017_CRUK_PC_0017_M1	14	23056601	37696979	4	2
RSuperficialInguinalLNMetA1_A29A-0017_CRUK_PC_0017_M1	14	37971612	65762476	2	2
RSuperficialInguinalLNMetA1_A29A-0017_CRUK_PC_0017_M1	14	65764069	107283598	2	2
RSuperficialInguinalLNMetA1_A29A-0017_CRUK_PC_0017_M1	15	20001774	64441548	4	1
RSuperficialInguinalLNMetA1_A29A-0017_CRUK_PC_0017_M1	15	65160901	102431166	4	1
RSuperficialInguinalLNMetA1_A29A-0017_CRUK_PC_0017_M1	16	84170	20602795	4	2
RSuperficialInguinalLNMetA1_A29A-0017_CRUK_PC_0017_M1	16	20984384	34548913	4	2
RSuperficialInguinalLNMetA1_A29A-0017_CRUK_PC_0017_M1	16	46478476	72781038	3	2
RSuperficialInguinalLNMetA1_A29A-0017_CRUK_PC_0017_M1	16	73004035	75415096	3	1
RSuperficialInguinalLNMetA1_A29A-0017_CRUK_PC_0017_M1	16	75420609	89998794	3	1
RSuperficialInguinalLNMetA1_A29A-0017_CRUK_PC_0017_M1	17	19894	7579801	6	0
RSuperficialInguinalLNMetA1_A29A-0017_CRUK_PC_0017_M1	17	7584266	17607317	2	0
RSuperficialInguinalLNMetA1_A29A-0017_CRUK_PC_0017_M1	17	17928925	20622378	2	2
RSuperficialInguinalLNMetA1_A29A-0017_CRUK_PC_0017_M1	17	20736848	22243760	2	2
RSuperficialInguinalLNMetA1_A29A-0017_CRUK_PC_0017_M1	17	25270079	34309051	2	2
RSuperficialInguinalLNMetA1_A29A-0017_CRUK_PC_0017_M1	17	34311387	35512253	2	2
RSuperficialInguinalLNMetA1_A29A-0017_CRUK_PC_0017_M1	17	35589436	41230044	2	2
RSuperficialInguinalLNMetA1_A29A-0017_CRUK_PC_0017_M1	17	41460439	44029416	2	2
RSuperficialInguinalLNMetA1_A29A-0017_CRUK_PC_0017_M1	17	45324590	57833476	2	2
RSuperficialInguinalLNMetA1_A29A-0017_CRUK_PC_0017_M1	17	57838831	63975029	2	2
RSuperficialInguinalLNMetA1_A29A-0017_CRUK_PC_0017_M1	17	63975741	65982943	2	2
RSuperficialInguinalLNMetA1_A29A-0017_CRUK_PC_0017_M1	17	66211047	67658293	2	2
RSuperficialInguinalLNMetA1_A29A-0017_CRUK_PC_0017_M1	17	67785428	79998898	2	2
RSuperficialInguinalLNMetA1_A29A-0017_CRUK_PC_0017_M1	18	132649	13494200	2	2
RSuperficialInguinalLNMetA1_A29A-0017_CRUK_PC_0017_M1	18	19001780	29194026	2	1
RSuperficialInguinalLNMetA1_A29A-0017_CRUK_PC_0017_M1	18	29685246	67992279	2	1
RSuperficialInguinalLNMetA1_A29A-0017_CRUK_PC_0017_M1	18	68001571	78017073	2	2
RSuperficialInguinalLNMetA1_A29A-0017_CRUK_PC_0017_M1	19	290090	5595354	3	1
RSuperficialInguinalLNMetA1_A29A-0017_CRUK_PC_0017_M1	19	6125028	22298322	3	1
RSuperficialInguinalLNMetA1_A29A-0017_CRUK_PC_0017_M1	19	23239350	24603386	3	0
RSuperficialInguinalLNMetA1_A29A-0017_CRUK_PC_0017_M1	19	28706961	36224705	3	3
RSuperficialInguinalLNMetA1_A29A-0017_CRUK_PC_0017_M1	19	36225999	43145624	3	1
RSuperficialInguinalLNMetA1_A29A-0017_CRUK_PC_0017_M1	19	43226114	46418886	3	1
RSuperficialInguinalLNMetA1_A29A-0017_CRUK_PC_0017_M1	19	46419773	51646509	3	1
RSuperficialInguinalLNMetA1_A29A-0017_CRUK_PC_0017_M1	19	51683579	54004939	3	3
RSuperficialInguinalLNMetA1_A29A-0017_CRUK_PC_0017_M1	19	54006497	59097308	3	2
RSuperficialInguinalLNMetA1_A29A-0017_CRUK_PC_0017_M1	20	20043815	25599560	2	2
RSuperficialInguinalLNMetA1_A29A-0017_CRUK_PC_0017_M1	20	29509957	30649002	3	0
RSuperficialInguinalLNMetA1_A29A-0017_CRUK_PC_0017_M1	20	30717667	33296988	3	0
RSuperficialInguinalLNMetA1_A29A-0017_CRUK_PC_0017_M1	20	34018152	35068018	3	3
RSuperficialInguinalLNMetA1_A29A-0017_CRUK_PC_0017_M1	20	35097119	36102400	2	0
RSuperficialInguinalLNMetA1_A29A-0017_CRUK_PC_0017_M1	20	37068857	38904203	2	0
RSuperficialInguinalLNMetA1_A29A-0017_CRUK_PC_0017_M1	20	38909572	40530674	2	0
RSuperficialInguinalLNMetA1_A29A-0017_CRUK_PC_0017_M1	20	40553789	48934778	5	0
RSuperficialInguinalLNMetA1_A29A-0017_CRUK_PC_0017_M1	20	49850156	51111118	5	0
RSuperficialInguinalLNMetA1_A29A-0017_CRUK_PC_0017_M1	20	52971883	55974779	5	2
RSuperficialInguinalLNMetA1_A29A-0017_CRUK_PC_0017_M1	20	57050146	59642091	5	2
RSuperficialInguinalLNMetA1_A29A-0017_CRUK_PC_0017_M1	20	59643115	62880369	5	2
RSuperficialInguinalLNMetA1_A29A-0017_CRUK_PC_0017_M1	21	15273828	39834330	4	2
RSuperficialInguinalLNMetA1_A29A-0017_CRUK_PC_0017_M1	21	39920484	42869063	0	2
RSuperficialInguinalLNMetA1_A29A-0017_CRUK_PC_0017_M1	21	42871273	48023311	4	2
RSuperficialInguinalLNMetA1_A29A-0017_CRUK_PC_0017_M1	22	16631738	29664906	2	1
RSuperficialInguinalLNMetA1_A29A-0017_CRUK_PC_0017_M1	22	30002484	38499978	2	1
RSuperficialInguinalLNMetA1_A29A-0017_CRUK_PC_0017_M1	22	38838730	49997158	2	1
