Original data from Gundem et al. 2015
Processed as described in the MEDICC2 publication.

If you use this data please cite the original publication:
Gundem G, Van Loo P, Kremeyer B, Alexandrov LB, Tubio JMC, Papaemmanuil E, et al. The evolutionary history of lethal metastatic prostate cancer. Nature. 2015;520: 353–357.